Var1,final_phase_vec_1,final_phase_vec_2,final_phase_vec_3,final_phase_vec_4,final_phase_vec_5,final_phase_vec_6,final_phase_vec_7,final_phase_vec_8,final_phase_vec_9,final_phase_vec_10,final_phase_vec_11,final_phase_vec_12,final_phase_vec_13,final_phase_vec_14,final_phase_vec_15,final_phase_vec_16,final_phase_vec_17,final_phase_vec_18,final_phase_vec_19,final_phase_vec_20,final_phase_vec_21,final_phase_vec_22,final_phase_vec_23,final_phase_vec_24,final_phase_vec_25,final_phase_vec_26,final_phase_vec_27,final_phase_vec_28,final_phase_vec_29,final_phase_vec_30,final_phase_vec_31,final_phase_vec_32,final_phase_vec_33,final_phase_vec_34,final_phase_vec_35,final_phase_vec_36,final_phase_vec_37,final_phase_vec_38,final_phase_vec_39,final_phase_vec_40,final_phase_vec_41,final_phase_vec_42,final_phase_vec_43,final_phase_vec_44,final_phase_vec_45,final_phase_vec_46,final_phase_vec_47,final_phase_vec_48,final_phase_vec_49,final_phase_vec_50,final_phase_vec_51,final_phase_vec_52,final_phase_vec_53,final_phase_vec_54,final_phase_vec_55,final_phase_vec_56,final_phase_vec_57,final_phase_vec_58,final_phase_vec_59,final_phase_vec_60,final_phase_vec_61,final_phase_vec_62,final_phase_vec_63,final_phase_vec_64
ant1,0,0,0,0,0,0,0,0,0,0,0,0,0,0,0,0,0,0,0,0,0,0,0,0,0,0,0,0,0,0,0,0,0,0,0,0,0,0,0,0,0,0,0,0,0,0,0,0,0,0,0,0,0,0,0,0,0,0,0,0,0,0,0,0
ant2,2.60252557046934,2.53683389594087,2.46956523414082,2.4007614016909,2.33046516953021,2.25872023632719,2.18557120131503,2.11106353656713,2.03524355873007,1.95815840023145,1.87985597998075,1.80038497358114,1.71979478307103,1.63813550621396,1.55545790535603,1.47181337587018,1.38725391420701,1.3018320855719,1.21560099124856,1.12861423558942,1.04092589269316,0.952590472790365,0.863662888357986,0.77419841998375,0.684252682001772,0.593881587920683,0.503141315665774,0.412088272656782,0.320779060743001,0.22927044101754,0.137619298532581,0.0458826069375843,0.0130875398680801,-0.071256582320741,0.0800505086967919,-0.376986147812792,-0.561282842734928,-0.611756483073313,-0.611363556677626,-0.823390896358393,-0.895938282098107,-0.989443769509068,-1.08413483353014,-1.16723376441052,-1.29897272175335,-1.3258685659037,-1.42720566884563,-1.46649071026282,-1.52356906630267,-1.60041184982191,-1.68431471603722,-1.71979478307103,-1.80038497358114,-1.87985597998075,-1.95815840023145,-2.03524355873007,-2.11106353656713,-2.18557120131503,-2.25872023632719,-2.33046516953021,-2.4007614016909,-2.46956523414082,-2.53683389594087,-2.60252557046934
ant3,5.20505114093867,5.07366779188175,4.93913046828164,4.80152280338181,4.66093033906041,4.51744047265437,4.37114240263005,4.22212707313427,4.07048711746014,3.9163168004629,3.75971195996149,3.60076994716228,3.43958956614207,3.27627101242793,3.11091581071206,2.94362675174037,2.77450782841403,2.6036641711438,2.43120198249713,2.25722847117883,2.08185178538631,1.90518094558073,1.72732577671597,1.5483968399675,1.36850536400354,1.18776317584137,1.00628263133155,0.824176545313565,0.641558121486003,0.45854088203508,0.275238597065163,0.0917652138751685,-0.313877612141059,-0.29923968196797,-2.44550691866424,-0.654658353815924,-0.70112940589836,-1.00334832893175,-1.07993298080532,-1.30103726421716,-1.48702998096352,-1.64327484928423,-1.8066708532012,-2.00791211306796,-2.05772939398876,-2.40817790386514,-2.47777427608306,-2.8369654723136,-2.74724854879306,-3.26541378923524,-3.09910920476246,-3.43958956614207,-3.60076994716228,-3.75971195996149,-3.9163168004629,-4.07048711746014,-4.22212707313427,-4.37114240263005,-4.51744047265437,-4.66093033906041,-4.8015228033818,-4.93913046828164,-5.07366779188175,-5.20505114093867
ant4,7.80757671140801,7.61050168782262,7.40869570242245,7.20228420507271,6.99139550859062,6.77616070898156,6.55671360394508,6.3331906097014,6.1057306761902,5.87447520069435,5.63956793994224,5.40115492074341,5.1593843492131,4.91440651864189,4.66637371606809,4.41544012761055,4.16176174262104,3.9054962567157,3.64680297374569,3.38584270676825,3.12277767807947,2.85777141837109,2.59098866507396,2.32259525995125,2.05275804600532,1.78164476376205,1.50942394699732,1.23626481797035,0.962337182229004,0.687811323052621,0.412857895597744,0.137647820812753,0.0469173903831305,-0.279268957179796,1.39807646427026,-0.831355279138471,-1.06712526716105,-1.38647236725673,-1.5249654941571,-2.01521439280581,-1.98881177120964,-2.68585412849567,-2.67459834963527,-3.31026433886326,-3.33166250108922,-3.89141392056689,-4.04766499746393,-4.38519534018237,-4.47649865171089,-4.8242271924774,-4.98539683239971,-5.1593843492131,-5.40115492074342,-5.63956793994224,-5.87447520069435,-6.1057306761902,-6.3331906097014,-6.55671360394508,-6.77616070898156,-6.99139550859062,-7.20228420507271,-7.40869570242245,-7.61050168782262,-7.80757671140801
ant5,10.4101022818773,10.1473355837635,9.87826093656327,9.60304560676361,9.32186067812082,9.03488094530875,8.7422848052601,8.44425414626853,8.14097423492027,7.83263360092581,7.51942391992299,7.20153989432455,6.87917913228413,6.55254202485586,6.22183162142413,5.88725350348073,5.54901565682806,5.2073283422876,4.86240396499425,4.51445694235766,4.16370357077262,3.81036189116146,3.45465155343194,3.096793679935,2.73701072800709,2.37552635168273,2.0125652626631,1.64835309062713,1.28311624297201,0.917081764070161,0.550477194130326,0.183530427750337,0.254450143852459,-0.264855356646856,0.503369621510334,-1.15846371302499,-1.20337364807086,-2.02769619730909,-2.46500760517432,-2.8701724076532,-3.10128480902585,-3.57108967282627,-3.83507614732005,-4.23247055772359,-4.68626332383388,-4.87093034790627,-5.09983055379452,-5.53253625875731,-5.74958244805704,-6.2536070990562,-6.44073607640921,-6.87917913228413,-7.20153989432456,-7.51942391992298,-7.83263360092581,-8.14097423492027,-8.44425414626853,-8.7422848052601,-9.03488094530875,-9.32186067812082,-9.60304560676361,-9.87826093656327,-10.1473355837635,-10.4101022818773
ant6,13.0126278523467,12.6841694797044,12.3478261707041,12.0038070084545,11.652325847651,11.2936011816359,10.9278560065751,10.5553176828357,10.1762177936503,9.79079200115726,9.39927989990373,9.00192486790569,8.59897391535516,8.19067753106983,7.77728952678016,7.35906687935092,6.93626957103507,6.5091604278595,6.07800495624282,5.64307117794708,5.20462946346578,4.76295236395183,4.31831444178993,3.87099209991875,3.42126341000886,2.96940793960341,2.51570657832887,2.06044136328391,1.60389530371501,1.1463522050877,0.688096492662907,0.229413034687921,0.174702454088706,-0.496023648539972,-1.25674623120692,-1.64659508154059,-2.08637129124165,-2.60578371068134,-2.89270209713312,-3.43533648562582,-3.79414397452098,-4.2785156669586,-4.43859209694357,-5.19499313344508,-5.5004466440136,-6.20533650611542,-6.35258227363492,-7.17061674812772,-7.36454773176524,-8.00146337822748,-8.2885651488188,-8.59897391535516,-9.00192486790569,-9.39927989990373,-9.79079200115726,-10.1762177936503,-10.5553176828357,-10.9278560065751,-11.2936011816359,-11.652325847651,-12.0038070084545,-12.3478261707041,-12.6841694797044,-13.0126278523467
ant7,15.615153422816,15.2210033756452,14.8173914048449,14.4045684101454,13.9827910171812,13.5523214179631,13.1134272078902,12.6663812194028,12.2114613523804,11.7489504013887,11.2791358798845,10.8023098414868,10.3187686984262,9.82881303728379,9.33274743213619,8.8308802552211,8.32352348524209,7.8109925134314,7.29360594749138,6.77168541353649,6.24555535615893,5.71554283674219,5.18197733014792,4.6451905199025,4.10551609201063,3.5632895275241,3.01884789399464,2.47252963594069,1.92467436445801,1.37562264610524,0.825715791195489,0.275295641625506,-0.179968906947972,-0.832176206887068,-2.01924988296001,-1.9482619060428,-2.35184540517447,-2.96967337984443,-3.43191311202787,-4.04227886246108,-4.40524026501729,-5.22714642959659,-5.61303569708437,-6.39974159259051,-6.71369572707668,-7.44151639122904,-7.80630407697745,-8.39111291322207,-8.81659096918988,-9.35147928099719,-9.76542922475633,-10.3187686984262,-10.8023098414868,-11.2791358798845,-11.7489504013887,-12.2114613523804,-12.6663812194028,-13.1134272078902,-13.5523214179631,-13.9827910171812,-14.4045684101454,-14.8173914048449,-15.2210033756452,-15.615153422816
ant8,18.2176789932853,17.7578372715861,17.2869566389857,16.8053298118363,16.3132561867114,15.8110416542903,15.2989984092052,14.7774447559699,14.2467049111105,13.7071088016202,13.1589918598652,12.602694815068,12.0385634814972,11.4669485434978,10.8882053374922,10.3026936310913,9.7107773994491,9.1128245990033,8.50920693873994,7.90029964912591,7.28648124885209,6.66813330953255,6.0456402185059,5.41938893988625,4.7897687740124,4.15717111544478,3.52198920966042,2.88461790859748,2.24545342520101,1.60489308712278,0.96333508972807,0.32117824856309,-0.312461446858793,-0.909855816742927,0.365873738378557,-2.13444215459497,-2.58097650632461,-3.42631356985437,-3.75336632927442,-4.8580949884998,-5.34727785827403,-6.15297142096174,-6.52420380573725,-7.34037587513967,-7.67442196174957,-8.54024790701272,-8.98158029512768,-9.83165180025851,-10.2562693974793,-11.1008138534695,-11.7041928745465,-12.0385634814972,-12.602694815068,-13.1589918598652,-13.7071088016202,-14.2467049111105,-14.7774447559699,-15.2989984092052,-15.8110416542903,-16.3132561867114,-16.8053298118363,-17.2869566389857,-17.7578372715861,-18.2176789932853
ant9,20.8202045637547,20.294671167527,19.7565218731265,19.2060912135272,18.6437213562416,18.0697618906175,17.4845696105202,16.8885082925371,16.2819484698405,15.6652672018516,15.038847839846,14.4030797886491,13.7583582645683,13.1050840497117,12.4436632428483,11.7745070069615,11.0980313136561,10.4146566845752,9.72480792998851,9.02891388471533,8.32740714154525,7.62072378232292,6.90930310686389,6.19358735987,5.47402145601418,4.75105270336546,4.02513052532619,3.29670618125426,2.56623248594401,1.83416352814032,1.10095438826065,0.367060855500674,-0.248092396147068,-0.890823632382015,-2.38633491313418,-2.44221831927017,-3.1294319323986,-4.07952883301733,-4.71780605650347,-5.54397501715919,-6.06233109196459,-6.91096904389083,-7.46883344015486,-8.35853234712202,-8.93291083074608,-9.87587042254737,-10.4216198618484,-11.2557179462915,-11.7650428160891,-12.5188931831993,-13.0897096359163,-13.7583582645683,-14.4030797886491,-15.038847839846,-15.6652672018516,-16.2819484698405,-16.8885082925371,-17.4845696105202,-18.0697618906175,-18.6437213562416,-19.2060912135272,-19.7565218731265,-20.294671167527,-20.8202045637547
ant10,23.422730134224,22.8315050634679,22.2260871072674,21.6068526152181,20.9741865257718,20.3284821269447,19.6701408118352,18.9995718291042,18.3171920285706,17.6234256020831,16.9187038198267,16.2034647622302,15.4781530476393,14.7432195559257,13.9991211482043,13.2463203828316,12.4852852278631,11.7164887701471,10.9404089212371,10.1575281203047,9.3683330342384,8.57331425511329,7.77296599522187,6.96778577985375,6.15827413801595,5.34493429128614,4.52827184099197,3.70879445391104,2.88701154668701,2.06343396915786,1.23857368679323,0.412943462438258,-0.111702654929567,-0.998711199551413,-1.38964414694417,-2.90038107526371,-3.61102524801415,-4.57462307887688,-5.24632641916452,-6.13075606193436,-6.821920207843,-7.78621254545532,-8.52143143853466,-9.48795382176054,-10.0882774036181,-11.0445616031685,-11.589581147244,-12.5554905582879,-13.1806291673462,-14.1408988511663,-14.6483975182718,-15.4781530476393,-16.2034647622302,-16.9187038198267,-17.6234256020831,-18.3171920285706,-18.9995718291042,-19.6701408118352,-20.3284821269447,-20.9741865257718,-21.6068526152181,-22.2260871072674,-22.8315050634679,-23.422730134224
ant11,26.0252557046934,25.3683389594087,24.6956523414082,24.007614016909,23.3046516953021,22.5872023632719,21.8557120131503,21.1106353656713,20.3524355873007,19.5815840023145,18.7985597998075,18.0038497358114,17.1979478307103,16.3813550621397,15.5545790535603,14.7181337587018,13.8725391420701,13.018320855719,12.1560099124856,11.2861423558942,10.4092589269316,9.52590472790365,8.63662888357986,7.7419841998375,6.84252682001772,5.93881587920683,5.03141315665774,4.12088272656782,3.20779060743001,2.2927044101754,1.37619298532581,0.458826069375843,-0.184710513321045,-1.28584097095655,-2.52718371313038,-3.22614726425927,-3.98990730490621,-4.96359705118801,-5.7059831307296,-6.83897343779979,-7.61722205052103,-8.73570020730006,-9.51741741536575,-10.4770784854235,-11.2343581882827,-12.2247028476897,-12.9497659637878,-14.0262659173031,-14.7122041940476,-15.6952977160356,-16.3374430190593,-17.1979478307103,-18.0038497358114,-18.7985597998075,-19.5815840023145,-20.3524355873007,-21.1106353656713,-21.8557120131503,-22.5872023632719,-23.3046516953021,-24.007614016909,-24.6956523414082,-25.3683389594087,-26.0252557046934
ant12,28.6277812751627,27.9051728553496,27.165217575549,26.4083754185999,25.6351168648323,24.8459225995991,24.0412832144653,23.2216989022385,22.3876791460307,21.539742402546,20.6784157797882,19.8042347093925,18.9177426137814,18.0194905683536,17.1100369589163,16.189947134572,15.2597930562772,14.3201529412909,13.3716109037342,12.4147565914836,11.4501848196247,10.478495200694,9.50029177193785,8.51618261982125,7.52677950201949,6.53269746712751,5.53455447232352,4.53297099922461,3.52856966817302,2.52197485119294,1.5138122838584,0.504708676313427,-0.336462212745837,-1.4695909580423,-3.37710201814607,-3.44678351216704,-4.35144235222108,-5.48825631781425,-6.3658968112615,-7.6018981291723,-8.38008594355738,-9.53668683013201,-10.3623687453002,-11.4843535763605,-12.4377244885644,-13.5072050893529,-14.1875844165174,-15.3805872068823,-16.125600333309,-17.1969378626689,-17.8620577514324,-18.9177426137814,-19.8042347093925,-20.6784157797882,-21.539742402546,-22.3876791460307,-23.2216989022385,-24.0412832144653,-24.8459225995991,-25.6351168648323,-26.4083754185999,-27.165217575549,-27.9051728553496,-28.6277812751627
ant13,31.230306845632,30.4420067512905,29.6347828096898,28.8091368202908,27.9655820343625,27.1046428359262,26.2268544157803,25.3327624388056,24.4229227047608,23.4979008027774,22.558271759769,21.6046196829737,20.6375373968524,19.6576260745676,18.6654948642724,17.6617605104422,16.6470469704842,15.6219850268628,14.5872118949828,13.543370827073,12.4911107123179,11.4310856734844,10.3639546602958,9.29038103980499,8.21103218402127,7.12657905504819,6.03769578798929,4.94505927188139,3.84934872891602,2.75124529221048,1.65143158239098,0.550591283251011,-0.24298005186381,-1.51821109652054,-2.24397364130672,-3.74438171224295,-4.76419056324993,-6.08528085702809,-7.00080364762354,-8.24081844029325,-9.18276662290233,-10.3578112175181,-11.3339257922039,-12.600815240345,-13.434405151938,-14.6915278319925,-15.5910961512368,-16.7351902111406,-17.6578310779963,-18.8335047892572,-19.5896951828833,-20.6375373968524,-21.6046196829737,-22.558271759769,-23.4979008027774,-24.4229227047608,-25.3327624388056,-26.2268544157803,-27.1046428359262,-27.9655820343625,-28.8091368202908,-29.6347828096898,-30.4420067512905,-31.230306845632
ant14,33.8328324161014,32.9788406472314,32.1043480438306,31.2098982219817,30.2960472038927,29.3633630722534,28.4124256170953,27.4438259753727,26.4581662634909,25.4560592030089,24.4381277397497,23.4050046565548,22.3573321799234,21.2957615807815,20.2209527696284,19.1335738863124,18.0343008846912,16.9238171124347,15.8028128862313,14.6719850626624,13.532036605011,12.3836761462747,11.2276175486538,10.0645794597887,8.89528486602304,7.72046064296888,6.54083710365506,5.35714754453817,4.17012778965902,2.98051573322802,1.78905088092356,0.596473890188595,-0.495634813701875,-1.59643804803545,-2.20711633692216,-4.14529776340262,-5.16946724014,-6.55006407209718,-7.51611233897648,-8.86642173168054,-9.96001356514574,-11.3180618392184,-12.2906362779718,-13.610925224201,-14.6509021065912,-15.8668169202196,-16.7813738572871,-18.2003364946806,-19.0524440472829,-20.3134904569781,-21.4618032599482,-22.3573321799234,-23.4050046565548,-24.4381277397497,-25.4560592030089,-26.4581662634909,-27.4438259753727,-28.4124256170953,-29.3633630722534,-30.2960472038927,-31.2098982219817,-32.1043480438306,-32.9788406472314,-33.8328324161014
ant15,36.4353579865707,35.5156745431722,34.5739132779715,33.6106596236726,32.6265123734229,31.6220833085806,30.5979968184104,29.5548895119399,28.493409822221,27.4142176032403,26.3179837197305,25.2053896301359,24.0771269629945,22.9338970869955,21.7764106749844,20.6053872621826,19.4215547988982,18.2256491980066,17.0184138774799,15.8005992982518,14.5729624977042,13.3362666190651,12.0912804370118,10.8387778797725,9.57953754802481,8.31434223088956,7.04397841932084,5.76923581719495,4.49090685040202,3.20978617424556,1.92667017945614,0.64235649712618,-0.504678820380882,-1.77680908262801,-3.72872437718834,-4.48856981312768,-5.62089313639946,-6.99520745741706,-8.15933882745967,-9.61150124282096,-10.6442887797785,-12.1531723007798,-13.2788876283849,-14.5956109753039,-15.683382894988,-17.1738939700514,-18.1634424071123,-19.5076595080301,-20.605164143395,-21.9145959945728,-22.8593445126696,-24.0771269629945,-25.2053896301359,-26.3179837197304,-27.4142176032403,-28.493409822221,-29.5548895119399,-30.5979968184104,-31.6220833085806,-32.6265123734229,-33.6106596236726,-34.5739132779714,-35.5156745431722,-36.4353579865707
ant16,39.03788355704,38.0525084391131,37.0434785121123,36.0114210253635,34.9569775429531,33.8808035449078,32.7835680197254,31.665953048507,30.528653380951,29.3723760034718,28.1978396997112,27.0057746037171,25.7969217460655,24.5720325932095,23.3318685803405,22.0772006380527,20.8088087131052,19.5274812835785,18.2340148687285,16.9292135338412,15.6138883903973,14.2888570918555,12.9549433253698,11.6129762997562,10.2637902300266,8.90822381881024,7.54711973498661,6.18132408985173,4.81168591114502,3.4390566152631,2.06428947798872,0.688239104063764,-0.498825426151863,-1.95746829303874,-3.1147771100953,-4.76428367779739,-6.06354979095583,-7.5260693705091,-8.71068421114226,-10.333918348275,-11.4988901413297,-12.9428152352312,-14.1566809259885,-15.7349978218514,-16.7957030969249,-18.3091704034808,-19.4291839387376,-20.9356356120148,-21.9693648153127,-23.4701230685993,-25.1600030261265,-25.7969217460655,-27.0057746037171,-28.1978396997112,-29.3723760034718,-30.528653380951,-31.665953048507,-32.7835680197254,-33.8808035449078,-34.9569775429531,-36.0114210253635,-37.0434785121123,-38.0525084391131,-39.03788355704
ant17,41.6404091275094,40.589342335054,39.5130437462531,38.4121824270544,37.2874427124833,36.139523781235,34.9691392210404,33.7770165850741,32.5638969396811,31.3305344037032,30.0776956796919,28.8061595772982,27.5167165291365,26.2101680994234,24.8873264856965,23.5490140139229,22.1960626273122,20.8293133691504,19.449615859977,18.0578277694307,16.6548142830905,15.2414475646458,13.8186062137278,12.38717471974,10.9480429120284,9.50210540673092,8.05026105065239,6.59341236250852,5.13246497188802,3.66832705628064,2.2019087765213,0.734121711001348,-0.433114096848689,-2.08099645403592,-4.37829897155482,-5.05871213520746,-6.47696989402027,-8.06674053632214,-9.34463856263315,-10.9444399567998,-12.296354049347,-13.8955199037043,-15.1470745902523,-16.7262505837998,-17.9673978319234,-19.5368085167714,-20.702186955878,-22.3453214314307,-23.5325852915141,-24.9719421266816,-26.1684412503401,-27.5167165291365,-28.8061595772982,-30.0776956796919,-31.3305344037032,-32.5638969396811,-33.7770165850741,-34.9691392210404,-36.139523781235,-37.2874427124833,-38.4121824270544,-39.5130437462531,-40.589342335054,-41.6404091275094
ant18,44.2429346979787,43.1261762309949,41.9826089803939,40.8129438287453,39.6179078820135,38.3982440175622,37.1547104223554,35.8880801216413,34.5991404984112,33.2886928039347,31.9575516596727,30.6065445508794,29.2365113122076,27.8483036056374,26.4427843910525,25.0208273897931,23.5833165415193,22.1311454547223,20.6652168512256,19.1864420050201,17.6957401757836,16.1940380374362,14.6822691020858,13.1613731397237,11.6322955940301,10.0959869946516,8.55340236631816,7.0055006351653,5.45324403263102,3.89759749729818,2.33952807505388,0.780004317938933,-0.54533042862796,-2.21105553745231,-2.75676170332935,-5.39086093550844,-6.77920429764682,-8.56032307680519,-10.0028476935406,-11.615459481109,-12.8404903368502,-14.7594608873834,-16.1348700140435,-17.7178531163596,-18.9406506775512,-20.8209464174338,-22.1091595012379,-23.6438912311755,-24.9140181911488,-26.6223273043956,-27.7462967042576,-29.2365113122076,-30.6065445508794,-31.9575516596727,-33.2886928039347,-34.5991404984112,-35.8880801216413,-37.1547104223554,-38.3982440175622,-39.6179078820135,-40.8129438287453,-41.9826089803939,-43.1261762309949,-44.2429346979787
ant19,46.845460268448,45.6630101269357,44.4521742145347,43.2137052304362,41.9483730515437,40.6569642538894,39.3402816236705,37.9991436582084,36.6343840571412,35.2468512041661,33.8374076396534,32.4069295244605,30.9563060952786,29.4864391118514,27.9982422964086,26.4926407656633,24.9705704557263,23.4329775402942,21.8808178424741,20.3150562406095,18.7366660684768,17.1466285102266,15.5459319904437,13.9355715597075,12.3165482760319,10.6898685825723,9.05654368198393,7.41758890782208,5.77402309337402,4.12686793831572,2.47714737358647,0.825886924876517,-0.64456885063782,-2.35572347758402,-5.60826813665197,-5.73870464276812,-7.3178322994218,-9.03501723528073,-10.5116565820327,-12.3824445415818,-13.7747591478177,-15.541913669837,-17.0092433384061,-18.866684043098,-20.1274520518438,-21.9223167084571,-23.4511050888918,-25.1565560967553,-26.4909113727817,-28.0636321759331,-29.7549569105488,-30.9563060952786,-32.4069295244605,-33.8374076396534,-35.2468512041661,-36.6343840571412,-37.9991436582084,-39.3402816236705,-40.6569642538894,-41.9483730515437,-43.2137052304362,-44.4521742145347,-45.6630101269357,-46.845460268448
ant20,49.4479858389174,48.1998440228766,46.9217394486756,45.6144666321272,44.2788382210739,42.9156844902165,41.5258528249855,40.1102071947755,38.6696276158713,37.2050096043976,35.7172636196342,34.2073144980416,32.6761008783496,31.1245746180653,29.5537002017646,27.9644541415335,26.3578243699333,24.7348096258661,23.0964188337227,21.4436704761989,19.77759196117,18.0992189830169,16.4095948788017,14.7097699796912,13.0008009580337,11.283750170493,9.55968499764971,7.82967718047886,6.09480215411703,4.35613837933326,2.61476667211905,0.871769531814101,-0.778928121611518,-2.46587482563327,-3.31239834690185,-6.08109745427341,-7.7037530975083,-9.52275670536833,-11.0510513419308,-13.0432152502124,-14.6140434184693,-16.4630016973427,-18.0219342726867,-19.8346516598565,-21.2717049468975,-23.2367330994889,-24.6781923272642,-26.4321209575967,-27.8696240760321,-29.7314007360718,-31.1236065799927,-32.6761008783496,-34.2073144980416,-35.7172636196342,-37.2050096043976,-38.6696276158713,-40.1102071947755,-41.5258528249855,-42.9156844902166,-44.2788382210739,-45.6144666321272,-46.9217394486755,-48.1998440228766,-49.4479858389174
ant21,52.0505114093867,50.7366779188175,49.3913046828164,48.0152280338181,46.6093033906041,45.1744047265437,43.7114240263005,42.2212707313427,40.7048711746014,39.163168004629,37.5971195996149,36.0076994716228,34.3958956614207,32.7627101242793,31.1091581071206,29.4362675174037,27.7450782841403,26.036641711438,24.3120198249713,22.5722847117883,20.8185178538631,19.0518094558073,17.2732577671597,15.483968399675,13.6850536400354,11.8776317584137,10.0628263133155,8.24176545313565,6.41558121486003,4.58540882035081,2.75238597065163,0.917652138751685,-0.725411317148756,-2.57753359234703,-3.1547815406134,-6.37760849912149,-7.95182179315658,-10.0644408571869,-11.8699029098759,-13.6596745928288,-15.3974070772206,-17.3560348174927,-18.9707307555085,-20.8544946804611,-22.4419322840278,-24.425299559937,-25.7934002121321,-27.8807508468045,-29.4087237328056,-31.2053982367617,-32.3931363871894,-34.3958956614207,-36.0076994716228,-37.5971195996149,-39.163168004629,-40.7048711746014,-42.2212707313427,-43.7114240263005,-45.1744047265437,-46.6093033906041,-48.0152280338181,-49.3913046828164,-50.7366779188175,-52.0505114093867
ant22,54.653036979856,53.2735118147584,51.8608699169572,50.415989435509,48.9397685601343,47.4331249628709,45.8969952276155,44.3323342679098,42.7401147333314,41.1213264048605,39.4769755795957,37.8080844452039,36.1156904444917,34.4008456304933,32.6646160124767,30.9080808932738,29.1323321983473,27.3384737970099,25.5276208162198,23.7008989473777,21.8594437465563,20.0043999285977,18.1369206555177,16.2581668196587,14.3693063220372,12.4715133463343,10.5659676289813,8.65385372579243,6.73636027560303,4.81467926136834,2.89000526918421,0.96353474568927,-0.637283143264795,-2.76760397366729,-4.46233350525772,-6.64551677679072,-8.44172461768377,-10.6002822774351,-12.3392349902009,-14.3880899616393,-16.2310827651363,-18.1545454727671,-19.8715424687257,-21.9822730250255,-23.6604519059062,-25.5847226708095,-27.2288773094657,-29.2734777615113,-30.8599117336137,-32.7929319495192,-34.4132169801835,-36.1156904444917,-37.8080844452039,-39.4769755795957,-41.1213264048605,-42.7401147333314,-44.3323342679098,-45.8969952276155,-47.4331249628709,-48.9397685601343,-50.415989435509,-51.8608699169572,-53.2735118147584,-54.653036979856
ant23,57.2555625503254,55.8103457106992,54.330435151098,52.8167508371999,51.2702337296645,49.6918451991981,48.0825664289306,46.4433978044769,44.7753582920615,43.0794848050919,41.3568315595764,39.608469418785,37.8354852275627,36.0389811367072,34.2200739178327,32.379894269144,30.5195861125543,28.6403058825818,26.7432218074684,24.8295131829671,22.9003696392494,20.956990401388,19.0005835438757,17.0323652396425,15.053559004039,13.065394934255,11.069108944647,9.06594199844921,7.05713933634603,5.04394970238589,3.02762456771679,1.00941735262685,-0.659086953168522,-2.96300176786202,-5.37906690338112,-6.98316186048421,-8.9693003122637,-11.0441432577637,-12.8721700340465,-15.1247882573266,-16.9137309644325,-19.0222764270392,-20.8956431857557,-22.9558754521711,-24.8339375026014,-26.8934152579484,-28.636782083184,-30.5939655548884,-32.332596017766,-34.3678162479486,-35.8451181567393,-37.8354852275627,-39.608469418785,-41.3568315595764,-43.0794848050919,-44.7753582920615,-46.4433978044769,-48.0825664289306,-49.6918451991981,-51.2702337296645,-52.8167508371999,-54.330435151098,-55.8103457106992,-57.2555625503254
ant24,59.8580881207947,58.3471796066401,56.8000003852388,55.2175122388908,53.6006988991947,51.9505654355253,50.2681376302456,48.554461341044,46.8106018507916,45.0376432053234,43.2366875395572,41.4088543923662,39.5552800106337,37.6771166429212,35.7755318231887,33.8517076450142,31.9068400267613,29.9421379681537,27.958822798717,25.9581274185566,23.9412955319426,21.9095808741784,19.8642464322337,17.8065636596262,15.7378116860408,13.6592765221757,11.5722502603128,9.47803027110599,7.37791839708903,5.27322014340343,3.16524386624937,1.05529995956444,-0.77751442226477,-3.04654250187684,-4.49026870271889,-7.38997789003084,-9.36680470648086,-11.5052624459204,-13.6126609504101,-15.7503846619044,-17.6768531289772,-19.9448833670928,-21.8346537812664,-23.9845571600743,-26.0359211091769,-28.0467085791963,-29.9127961037971,-32.0724230275338,-33.8276820420391,-35.8560134050427,-37.6900366619056,-39.5552800106338,-41.4088543923662,-43.2366875395572,-45.0376432053234,-46.8106018507916,-48.554461341044,-50.2681376302456,-51.9505654355253,-53.6006988991947,-55.2175122388908,-56.8000003852388,-58.3471796066401,-59.8580881207947
ant25,62.460613691264,60.884013502581,59.2695656193796,57.6182736405817,55.9311640687249,54.2092856718525,52.4537088315606,50.6655248776112,48.8458454095216,46.9958016055548,45.1165435195379,43.2092393659473,41.2750747937048,39.3152521491352,37.3309897285448,35.3235210208844,33.2940939409684,31.2439700537256,29.1744237899655,27.086741654146,24.9822214246357,22.8621713469688,20.7279093205917,18.58076207961,16.4220643680425,14.2531581100964,12.0753915759786,9.89011854376277,7.69869745783203,5.50249058442097,3.30286316478195,1.10118256650202,-0.884343051082706,-3.09313495990828,-5.47889730758512,-7.69425209145731,-9.68797769195881,-12.1024050917033,-14.1729637688479,-16.3938993234634,-18.5090987669002,-20.7784664805025,-22.7620661541823,-25.0949020204252,-26.9219559987601,-29.2542123482602,-31.3791766079131,-33.3936890038239,-35.2785487952216,-37.5060514778564,-38.9336632186233,-41.2750747937048,-43.2092393659473,-45.1165435195379,-46.9958016055548,-48.8458454095216,-50.6655248776112,-52.4537088315606,-54.2092856718525,-55.9311640687249,-57.6182736405817,-59.2695656193796,-60.884013502581,-62.460613691264
ant26,65.0631392617334,63.4208473985219,61.7391308535205,60.0190350422726,58.2616292382551,56.4680059081797,54.6392800328757,52.7765884141783,50.8810889682517,48.9539600057863,46.9963994995187,45.0096243395285,42.9948695767758,40.9533876553491,38.8864476339008,36.7953343967546,34.6813478551754,32.5458021392975,30.3900247812141,28.2153558897354,26.0231473173289,23.8147618197591,21.5915722089496,19.3549604995937,17.1063170500443,14.8470396980171,12.5785328916444,10.3022068164196,8.01947651857503,5.73176102543851,3.44048246331454,1.14706517343961,-0.861719815756953,-3.25686264701456,-6.38130171405306,-7.91447900650666,-10.1213141823089,-12.6304119749187,-14.7546961546188,-17.1570801226789,-19.1904879963168,-21.5795693013692,-23.679006467522,-26.0926160523833,-28.1889683872555,-30.533316871066,-32.5727990433808,-34.7871399523077,-36.7735809656682,-38.9718582813501,-40.9658617000153,-42.9948695767758,-45.0096243395285,-46.9963994995187,-48.9539600057863,-50.8810889682517,-52.7765884141783,-54.6392800328757,-56.4680059081797,-58.2616292382551,-60.0190350422726,-61.7391308535204,-63.4208473985219,-65.0631392617334
ant27,67.6656648322027,65.9576812944627,64.2086960876613,62.4197964439635,60.5920944077854,58.7267261445069,56.8248512341907,54.8876519507455,52.9163325269818,50.9121184060177,48.8762554794994,46.8100093131096,44.7146643598468,42.5915231615631,40.4419055392568,38.2671477726248,36.0686017693824,33.8476342248694,31.6056257724626,29.3439701253248,27.0640732100221,24.7673522925495,22.4552350973076,20.1291589195775,17.7905697320461,15.4409212859378,13.0816742073101,10.7142950890763,8.34025557931804,5.96103146645605,3.57810176184712,1.19294778037719,-0.983583828143281,-3.52330012533428,-5.05057181212149,-8.23107089105457,-10.5448064550294,-13.0210236739918,-15.2591261925015,-17.8622024296235,-20.0169381531936,-22.530481115582,-24.6678726354443,-27.0897166051033,-29.2693450636255,-31.6908012936302,-33.5713907056836,-36.2328823262236,-38.2193197209997,-40.5847742880586,-42.8761725984435,-44.7146643598469,-46.8100093131096,-48.8762554794994,-50.9121184060177,-52.9163325269818,-54.8876519507455,-56.8248512341907,-58.7267261445069,-60.5920944077854,-62.4197964439635,-64.2086960876613,-65.9576812944627,-67.6656648322027
ant28,70.268190402672,68.4945151904036,66.6782613218021,64.8205578456544,62.9225595773156,60.985446380834,59.0104224355057,56.9987154873126,54.9515760857118,52.8702768062492,50.7561114594802,48.6103942866907,46.4344591429179,44.2296586677771,41.9973634446128,39.7389611484949,37.4558556835894,35.1494663104413,32.8212267637112,30.4725843609142,28.1049991027152,25.7199427653399,23.3188979856656,20.9033573395612,18.4748224140478,16.0348028738584,13.5848155229759,11.1263833617331,8.66103464006104,6.19030190747359,3.7157210603797,1.23883038731478,-1.08259585801403,-3.654741738098,-5.34937881019993,-8.68373419377908,-10.971894650959,-13.512054244055,-15.9249613221292,-18.4458348789015,-20.8601046491879,-23.4097327458746,-25.6527061459186,-28.2313543238237,-30.4080487119695,-32.8936378857531,-34.9844331366803,-37.524022037701,-39.7568564215984,-42.1389115542214,-44.2219203352764,-46.4344591429179,-48.6103942866907,-50.7561114594801,-52.8702768062492,-54.9515760857118,-56.9987154873126,-59.0104224355057,-60.985446380834,-62.9225595773156,-64.8205578456544,-66.6782613218021,-68.4945151904036,-70.268190402672
ant29,72.8707159731414,71.0313490863445,69.1478265559429,67.2213192473453,65.2530247468458,63.2441666171612,61.1959936368207,59.1097790238797,56.9868196444419,54.8284352064806,52.6359674394609,50.4107792602719,48.1542539259889,45.867794173991,43.5528213499689,41.2107745243651,38.8431095977964,36.4512983960132,34.0368277549598,31.6011985965036,29.1459249954084,26.6725332381302,24.1825608740236,21.677555759545,19.1590750960496,16.6286844617791,14.0879568386417,11.5384716343899,8.98181370080404,6.41957234849113,3.85334035891228,1.28471299425236,-1.05004376586552,-3.67493977653671,-7.98063103177182,-9.00353088770631,-11.4088589039375,-14.1611546421023,-16.4587157459132,-19.1385300115408,-21.416134484181,-24.1387822798429,-26.8429848429976,-29.2206006561532,-31.5863423447783,-34.2108412113849,-36.542657394644,-38.9973530188941,-41.1278279134603,-43.6198401218439,-45.6385469169567,-48.1542539259889,-50.4107792602719,-52.6359674394609,-54.8284352064806,-56.9868196444419,-59.1097790238797,-61.1959936368207,-63.2441666171612,-65.2530247468458,-67.2213192473453,-69.1478265559429,-71.0313490863445,-72.8707159731414
ant30,75.4732415436107,73.5681829822854,71.6173917900837,69.6220806490362,67.583489916376,65.5028868534884,63.3815648381358,61.2208425604468,59.022063203172,56.7865936067121,54.5158234194416,52.211164233853,49.8740487090599,47.505929680205,45.1082792553249,42.6825879002353,40.2303635120034,37.7531304815851,35.2524287462083,32.7298128320931,30.1868508881015,27.6251237109206,25.0462237623816,22.4517541795287,19.8433277780514,17.2225660496998,14.5910981543074,11.9505599070467,9.30259276154704,6.64884278950867,3.99095965744486,1.33059560118994,-1.29896242477699,-3.76331358281658,-8.09485154703132,-9.19958790081122,-11.8161199630299,-14.6254566375499,-17.0447740733819,-19.9573009058577,-22.3902024261143,-25.1259984000279,-27.5269646687142,-30.1791335243031,-32.6638545662359,-35.286428488017,-37.6626986180301,-40.3666888445568,-42.7539608737952,-45.3176519646965,-47.5144754423395,-49.8740487090599,-52.211164233853,-54.5158234194416,-56.7865936067121,-59.022063203172,-61.2208425604468,-63.3815648381358,-65.5028868534884,-67.583489916376,-69.6220806490362,-71.6173917900837,-73.5681829822854,-75.4732415436107
ant31,78.0757671140801,76.1050168782262,74.0869570242246,72.0228420507271,69.9139550859062,67.7616070898156,65.5671360394508,63.331906097014,61.057306761902,58.7447520069436,56.3956793994224,54.0115492074342,51.593843492131,49.1440651864189,46.6637371606809,44.1544012761055,41.6176174262104,39.054962567157,36.4680297374569,33.8584270676825,31.2277767807947,28.577714183711,25.9098866507396,23.2259525995125,20.5275804600532,17.8164476376205,15.0942394699732,12.3626481797035,9.62337182229004,6.87811323052621,4.12857895597744,1.37647820812753,-1.30151566996754,-4.01686356218258,-5.95988686743974,-9.49112621659169,-12.1300984913279,-14.9936875794749,-17.6644744007806,-20.5506806514472,-23.1358837816331,-26.0432559499601,-28.4313435874831,-31.4024544281375,-33.894034713533,-36.593347272342,-38.8856061612039,-41.6547404736129,-43.9854841000275,-46.6871261047983,-48.9563816482638,-51.593843492131,-54.0115492074342,-56.3956793994224,-58.7447520069436,-61.057306761902,-63.331906097014,-65.5671360394508,-67.7616070898156,-69.9139550859062,-72.0228420507271,-74.0869570242245,-76.1050168782262,-78.0757671140801
ant32,80.6782926845494,78.6418507741671,76.5565222583654,74.423603452418,72.2444202554364,70.0203273261428,67.7527072407658,65.4429696335811,63.0925503206321,60.702910407175,58.2755353794031,55.8119341810153,53.313638275202,50.7822006926329,48.219195066037,45.6262146519757,43.0048713404175,40.3567946527289,37.6836307287055,34.9870413032719,32.2687026734878,29.5303046565013,26.7735495390976,24.0001510194962,21.2118331420549,18.4103292255412,15.597380785639,12.7747364523603,9.94415088303304,7.10738367154375,4.26619825451002,1.42236081506511,-1.41203750730465,-4.22362094473799,-7.69056452889797,-9.95776593775489,-12.7046104513703,-15.5593823009184,-18.0394636263376,-21.1196025808623,-23.828720868894,-26.7016107037146,-29.0318352217395,-32.3123862312472,-34.8897739942515,-37.847324155177,-40.3201516406915,-43.2460167402119,-45.6822145789916,-48.4517427770401,-50.8073227637017,-53.313638275202,-55.8119341810153,-58.2755353794031,-60.702910407175,-63.0925503206321,-65.4429696335811,-67.7527072407658,-70.0203273261428,-72.2444202554364,-74.423603452418,-76.5565222583653,-78.6418507741671,-80.6782926845494
ant33,83.2808182550187,81.178684670108,79.0260874925062,76.8243648541089,74.5748854249666,72.27904756247,69.9382784420808,67.5540331701482,65.1277938793622,62.6610688074065,60.1553913593839,57.6123191545964,55.033433058273,52.4203361988469,49.774652971393,47.0980280278459,44.3921252546245,41.6586267383008,38.899231719954,36.1156555388613,33.309628566181,30.4828951292917,27.6372124274556,24.77434943948,21.8960858240567,19.0042108134618,16.1005221013048,13.186824725017,10.264929943776,7.33665411256129,4.40381755304261,1.4682434220027,-1.21398940694121,-4.280031826956,-8.01375761786249,-10.302044372739,-13.0691747059344,-16.1992848122619,-18.9471762379502,-21.9944368454542,-24.7394683057246,-27.85563353978,-30.4535926773013,-33.2885500835873,-35.8940309144314,-38.8589011243113,-41.4869002292719,-44.384120415675,-46.9404949006443,-49.8338979906771,-52.2544905318049,-55.033433058273,-57.6123191545964,-60.1553913593839,-62.6610688074065,-65.1277938793622,-67.5540331701482,-69.9382784420808,-72.27904756247,-74.5748854249666,-76.8243648541089,-79.0260874925062,-81.178684670108,-83.2808182550187
ant34,85.8833438254881,83.7155185660489,81.495652726647,79.2251262557998,76.9053505944968,74.5377677987972,72.1238496433959,69.6650967067154,67.1630374380922,64.6192272076379,62.0352473393646,59.4127041281776,56.7532278413441,54.0584717050608,51.330110876749,48.569841403716,45.7793791688315,42.9604588238727,40.1148327112026,37.2442697744507,34.3505544588741,31.435485602082,28.5008753158135,25.5485478594637,22.5803385060585,19.5980924013825,16.6036634169705,13.5989129976738,10.585709004519,7.56592455357883,4.54143685157519,1.51412602894028,-1.14997041393356,-4.33716714013988,-5.20592496392039,-10.5000461258288,-13.4659287286976,-16.5973439135206,-19.4892586456745,-22.6853915902264,-25.4495644649999,-28.6737984483906,-31.7079269382835,-34.5761083863224,-37.2057279114605,-40.3755141680253,-43.1508339387561,-46.0144879210108,-48.643668781216,-51.4851251559524,-54.1164183490201,-56.7532278413441,-59.4127041281776,-62.0352473393646,-64.6192272076379,-67.1630374380922,-69.6650967067154,-72.1238496433959,-74.5377677987972,-76.9053505944968,-79.2251262557998,-81.495652726647,-83.7155185660489,-85.8833438254881
ant35,88.4858693959574,86.2523524619897,83.9652179607878,81.6258876574907,79.235815764027,76.7964880351243,74.3094208447109,71.7761602432825,69.1982809968223,66.5773856078694,63.9151033193454,61.2130891017587,58.4730226244151,55.6966072112748,52.8855687821051,50.0416547795862,47.1666330830385,44.2622909094446,41.3304337024512,38.3728840100401,35.3914803515673,32.3880760748724,29.3645382041715,26.3227462794475,23.2645911880603,20.1919739893032,17.1068047326363,14.0110012703306,10.906488065262,7.79519499459637,4.67905615010777,1.56000863587787,-0.807576590073721,-4.51976442177434,-6.081035894836,-10.7681222082069,-13.350660289697,-16.9886569303141,-19.7113008216126,-23.1571716788424,-26.0314202613574,-29.2693036033305,-32.1543629040064,-35.3659583076746,-38.1628247672029,-41.3700818740725,-44.1119007576564,-47.269938376002,-49.7331196002681,-53.0430987411042,-55.5868415571271,-58.4730226244151,-61.2130891017587,-63.9151033193454,-66.5773856078694,-69.1982809968223,-71.7761602432825,-74.3094208447109,-76.7964880351244,-79.235815764027,-81.6258876574907,-83.9652179607878,-86.2523524619897,-88.4858693959574
ant36,91.0883949664267,88.7891863579306,86.4347831949286,84.0266490591816,81.5662809335572,79.0552082714515,76.4949920460259,73.8872237798496,71.2335245555524,68.5355440081008,65.7949592993261,63.0134740753398,60.1928174074861,57.3347427174888,54.4410266874611,51.5134681554564,48.5538869972455,45.5641229950165,42.5460346936997,39.5014982456296,36.4324062442604,33.3406665476628,30.2282010925295,27.0969446994312,23.948843870062,20.7858555772239,17.6099460483021,14.4230895429874,11.227267126005,8.02446543561391,4.81667544864035,1.60589124281545,-1.82082930519137,-4.7339179122302,-9.08556706636321,-11.212642044155,-14.6184453257481,-17.6247989803991,-21.1059172394367,-23.9526168391231,-27.251138484848,-30.0294687649595,-33.4452011624273,-36.464894637958,-39.6441901765877,-42.5815937211052,-45.6052164623966,-48.5730074224546,-51.5178876149473,-54.4405384962572,-57.3129041246444,-60.1928174074861,-63.0134740753399,-65.7949592993261,-68.5355440081008,-71.2335245555524,-73.8872237798496,-76.4949920460259,-79.0552082714515,-81.5662809335572,-84.0266490591816,-86.4347831949286,-88.7891863579306,-91.0883949664267
