%!PS-Adobe-3.0 EPSF-3.0
%%Creator: (MATLAB, The Mathworks, Inc. Version 9.4.0.813654 \(R2018a\). Operating System: Windows 10)
%%Title: C:/Users/Han/Desktop/LOS_NLOS_quadriga_sim.eps
%%CreationDate: 2019-12-01T20:04:13
%%Pages: (atend)
%%BoundingBox: 0 0 503 542
%%LanguageLevel: 3
%%EndComments
%%BeginProlog
%%BeginResource: procset (Apache XML Graphics Std ProcSet) 1.2 0
%%Version: 1.2 0
%%Copyright: (Copyright 2001-2003,2010 The Apache Software Foundation. License terms: http://www.apache.org/licenses/LICENSE-2.0)
/bd{bind def}bind def
/ld{load def}bd
/GR/grestore ld
/GS/gsave ld
/RM/rmoveto ld
/C/curveto ld
/t/show ld
/L/lineto ld
/ML/setmiterlimit ld
/CT/concat ld
/f/fill ld
/N/newpath ld
/S/stroke ld
/CC/setcmykcolor ld
/A/ashow ld
/cp/closepath ld
/RC/setrgbcolor ld
/LJ/setlinejoin ld
/GC/setgray ld
/LW/setlinewidth ld
/M/moveto ld
/re {4 2 roll M
1 index 0 rlineto
0 exch rlineto
neg 0 rlineto
cp } bd
/_ctm matrix def
/_tm matrix def
/BT { _ctm currentmatrix pop matrix _tm copy pop 0 0 moveto } bd
/ET { _ctm setmatrix } bd
/iTm { _ctm setmatrix _tm concat } bd
/Tm { _tm astore pop iTm 0 0 moveto } bd
/ux 0.0 def
/uy 0.0 def
/F {
  /Tp exch def
  /Tf exch def
  Tf findfont Tp scalefont setfont
  /cf Tf def  /cs Tp def
} bd
/ULS {currentpoint /uy exch def /ux exch def} bd
/ULE {
  /Tcx currentpoint pop def
  gsave
  newpath
  cf findfont cs scalefont dup
  /FontMatrix get 0 get /Ts exch def /FontInfo get dup
  /UnderlinePosition get Ts mul /To exch def
  /UnderlineThickness get Ts mul /Tt exch def
  ux uy To add moveto  Tcx uy To add lineto
  Tt setlinewidth stroke
  grestore
} bd
/OLE {
  /Tcx currentpoint pop def
  gsave
  newpath
  cf findfont cs scalefont dup
  /FontMatrix get 0 get /Ts exch def /FontInfo get dup
  /UnderlinePosition get Ts mul /To exch def
  /UnderlineThickness get Ts mul /Tt exch def
  ux uy To add cs add moveto Tcx uy To add cs add lineto
  Tt setlinewidth stroke
  grestore
} bd
/SOE {
  /Tcx currentpoint pop def
  gsave
  newpath
  cf findfont cs scalefont dup
  /FontMatrix get 0 get /Ts exch def /FontInfo get dup
  /UnderlinePosition get Ts mul /To exch def
  /UnderlineThickness get Ts mul /Tt exch def
  ux uy To add cs 10 mul 26 idiv add moveto Tcx uy To add cs 10 mul 26 idiv add lineto
  Tt setlinewidth stroke
  grestore
} bd
/QT {
/Y22 exch store
/X22 exch store
/Y21 exch store
/X21 exch store
currentpoint
/Y21 load 2 mul add 3 div exch
/X21 load 2 mul add 3 div exch
/X21 load 2 mul /X22 load add 3 div
/Y21 load 2 mul /Y22 load add 3 div
/X22 load /Y22 load curveto
} bd
/SSPD {
dup length /d exch dict def
{
/v exch def
/k exch def
currentpagedevice k known {
/cpdv currentpagedevice k get def
v cpdv ne {
/upd false def
/nullv v type /nulltype eq def
/nullcpdv cpdv type /nulltype eq def
nullv nullcpdv or
{
/upd true def
} {
/sametype v type cpdv type eq def
sametype {
v type /arraytype eq {
/vlen v length def
/cpdvlen cpdv length def
vlen cpdvlen eq {
0 1 vlen 1 sub {
/i exch def
/obj v i get def
/cpdobj cpdv i get def
obj cpdobj ne {
/upd true def
exit
} if
} for
} {
/upd true def
} ifelse
} {
v type /dicttype eq {
v {
/dv exch def
/dk exch def
/cpddv cpdv dk get def
dv cpddv ne {
/upd true def
exit
} if
} forall
} {
/upd true def
} ifelse
} ifelse
} if
} ifelse
upd true eq {
d k v put
} if
} if
} if
} forall
d length 0 gt {
d setpagedevice
} if
} bd
/RE { % /NewFontName [NewEncodingArray] /FontName RE -
  findfont dup length dict begin
  {
    1 index /FID ne
    {def} {pop pop} ifelse
  } forall
  /Encoding exch def
  /FontName 1 index def
  currentdict definefont pop
  end
} bind def
%%EndResource
%%BeginResource: procset (Apache XML Graphics EPS ProcSet) 1.0 0
%%Version: 1.0 0
%%Copyright: (Copyright 2002-2003 The Apache Software Foundation. License terms: http://www.apache.org/licenses/LICENSE-2.0)
/BeginEPSF { %def
/b4_Inc_state save def         % Save state for cleanup
/dict_count countdictstack def % Count objects on dict stack
/op_count count 1 sub def      % Count objects on operand stack
userdict begin                 % Push userdict on dict stack
/showpage { } def              % Redefine showpage, { } = null proc
0 setgray 0 setlinecap         % Prepare graphics state
1 setlinewidth 0 setlinejoin
10 setmiterlimit [ ] 0 setdash newpath
/languagelevel where           % If level not equal to 1 then
{pop languagelevel             % set strokeadjust and
1 ne                           % overprint to their defaults.
{false setstrokeadjust false setoverprint
} if
} if
} bd
/EndEPSF { %def
count op_count sub {pop} repeat            % Clean up stacks
countdictstack dict_count sub {end} repeat
b4_Inc_state restore
} bd
%%EndResource
%FOPBeginFontDict
%%IncludeResource: font Courier-Oblique
%%IncludeResource: font Courier-BoldOblique
%%IncludeResource: font Courier-Bold
%%IncludeResource: font ZapfDingbats
%%IncludeResource: font Symbol
%%IncludeResource: font Helvetica
%%IncludeResource: font Helvetica-Oblique
%%IncludeResource: font Helvetica-Bold
%%IncludeResource: font Helvetica-BoldOblique
%%IncludeResource: font Times-Roman
%%IncludeResource: font Times-Italic
%%IncludeResource: font Times-Bold
%%IncludeResource: font Times-BoldItalic
%%IncludeResource: font Courier
%FOPEndFontDict
%%BeginResource: encoding WinAnsiEncoding
/WinAnsiEncoding [
/.notdef /.notdef /.notdef /.notdef /.notdef
/.notdef /.notdef /.notdef /.notdef /.notdef
/.notdef /.notdef /.notdef /.notdef /.notdef
/.notdef /.notdef /.notdef /.notdef /.notdef
/.notdef /.notdef /.notdef /.notdef /.notdef
/.notdef /.notdef /.notdef /.notdef /.notdef
/.notdef /.notdef /space /exclam /quotedbl
/numbersign /dollar /percent /ampersand /quotesingle
/parenleft /parenright /asterisk /plus /comma
/hyphen /period /slash /zero /one
/two /three /four /five /six
/seven /eight /nine /colon /semicolon
/less /equal /greater /question /at
/A /B /C /D /E
/F /G /H /I /J
/K /L /M /N /O
/P /Q /R /S /T
/U /V /W /X /Y
/Z /bracketleft /backslash /bracketright /asciicircum
/underscore /quoteleft /a /b /c
/d /e /f /g /h
/i /j /k /l /m
/n /o /p /q /r
/s /t /u /v /w
/x /y /z /braceleft /bar
/braceright /asciitilde /bullet /Euro /bullet
/quotesinglbase /florin /quotedblbase /ellipsis /dagger
/daggerdbl /circumflex /perthousand /Scaron /guilsinglleft
/OE /bullet /Zcaron /bullet /bullet
/quoteleft /quoteright /quotedblleft /quotedblright /bullet
/endash /emdash /asciitilde /trademark /scaron
/guilsinglright /oe /bullet /zcaron /Ydieresis
/space /exclamdown /cent /sterling /currency
/yen /brokenbar /section /dieresis /copyright
/ordfeminine /guillemotleft /logicalnot /sfthyphen /registered
/macron /degree /plusminus /twosuperior /threesuperior
/acute /mu /paragraph /middot /cedilla
/onesuperior /ordmasculine /guillemotright /onequarter /onehalf
/threequarters /questiondown /Agrave /Aacute /Acircumflex
/Atilde /Adieresis /Aring /AE /Ccedilla
/Egrave /Eacute /Ecircumflex /Edieresis /Igrave
/Iacute /Icircumflex /Idieresis /Eth /Ntilde
/Ograve /Oacute /Ocircumflex /Otilde /Odieresis
/multiply /Oslash /Ugrave /Uacute /Ucircumflex
/Udieresis /Yacute /Thorn /germandbls /agrave
/aacute /acircumflex /atilde /adieresis /aring
/ae /ccedilla /egrave /eacute /ecircumflex
/edieresis /igrave /iacute /icircumflex /idieresis
/eth /ntilde /ograve /oacute /ocircumflex
/otilde /odieresis /divide /oslash /ugrave
/uacute /ucircumflex /udieresis /yacute /thorn
/ydieresis
] def
%%EndResource
%FOPBeginFontReencode
/Courier-Oblique findfont
dup length dict begin
  {1 index /FID ne {def} {pop pop} ifelse} forall
  /Encoding WinAnsiEncoding def
  currentdict
end
/Courier-Oblique exch definefont pop
/Courier-BoldOblique findfont
dup length dict begin
  {1 index /FID ne {def} {pop pop} ifelse} forall
  /Encoding WinAnsiEncoding def
  currentdict
end
/Courier-BoldOblique exch definefont pop
/Courier-Bold findfont
dup length dict begin
  {1 index /FID ne {def} {pop pop} ifelse} forall
  /Encoding WinAnsiEncoding def
  currentdict
end
/Courier-Bold exch definefont pop
/Helvetica findfont
dup length dict begin
  {1 index /FID ne {def} {pop pop} ifelse} forall
  /Encoding WinAnsiEncoding def
  currentdict
end
/Helvetica exch definefont pop
/Helvetica-Oblique findfont
dup length dict begin
  {1 index /FID ne {def} {pop pop} ifelse} forall
  /Encoding WinAnsiEncoding def
  currentdict
end
/Helvetica-Oblique exch definefont pop
/Helvetica-Bold findfont
dup length dict begin
  {1 index /FID ne {def} {pop pop} ifelse} forall
  /Encoding WinAnsiEncoding def
  currentdict
end
/Helvetica-Bold exch definefont pop
/Helvetica-BoldOblique findfont
dup length dict begin
  {1 index /FID ne {def} {pop pop} ifelse} forall
  /Encoding WinAnsiEncoding def
  currentdict
end
/Helvetica-BoldOblique exch definefont pop
/Times-Roman findfont
dup length dict begin
  {1 index /FID ne {def} {pop pop} ifelse} forall
  /Encoding WinAnsiEncoding def
  currentdict
end
/Times-Roman exch definefont pop
/Times-Italic findfont
dup length dict begin
  {1 index /FID ne {def} {pop pop} ifelse} forall
  /Encoding WinAnsiEncoding def
  currentdict
end
/Times-Italic exch definefont pop
/Times-Bold findfont
dup length dict begin
  {1 index /FID ne {def} {pop pop} ifelse} forall
  /Encoding WinAnsiEncoding def
  currentdict
end
/Times-Bold exch definefont pop
/Times-BoldItalic findfont
dup length dict begin
  {1 index /FID ne {def} {pop pop} ifelse} forall
  /Encoding WinAnsiEncoding def
  currentdict
end
/Times-BoldItalic exch definefont pop
/Courier findfont
dup length dict begin
  {1 index /FID ne {def} {pop pop} ifelse} forall
  /Encoding WinAnsiEncoding def
  currentdict
end
/Courier exch definefont pop
%FOPEndFontReencode
%%EndProlog
%%Page: 1 1
%%PageBoundingBox: 0 0 503 542
%%BeginPageSetup
[1 0 0 -1 0 542] CT
%%EndPageSetup
GS
[0.75 0 0 0.75 0 0.5] CT
1 GC
N
0 0 671 722 re
f
GR
GS
[0.75 0 0 0.75 0 0.5] CT
1 GC
N
0 0 671 722 re
f
GR
GS
[0.75 0 0 0.75 0 0.5] CT
1 GC
N
87 311 M
612 311 L
612 54 L
87 54 L
cp
f
GR
GS
[0.75 0 0 0.75 0 0.5] CT
0.873 GC
1 LJ
0.667 LW
N
87 311 M
87 54 L
S
GR
GS
[0.75 0 0 0.75 0 0.5] CT
0.873 GC
1 LJ
0.667 LW
N
218.25 311 M
218.25 54 L
S
GR
GS
[0.75 0 0 0.75 0 0.5] CT
0.873 GC
1 LJ
0.667 LW
N
349.5 311 M
349.5 54 L
S
GR
GS
[0.75 0 0 0.75 0 0.5] CT
0.873 GC
1 LJ
0.667 LW
N
480.75 311 M
480.75 54 L
S
GR
GS
[0.75 0 0 0.75 0 0.5] CT
0.873 GC
1 LJ
0.667 LW
N
612 311 M
612 54 L
S
GR
GS
[0.75 0 0 0.75 0 0.5] CT
0.873 GC
1 LJ
0.667 LW
N
612 311 M
87 311 L
S
GR
GS
[0.75 0 0 0.75 0 0.5] CT
0.873 GC
1 LJ
0.667 LW
N
612 246.75 M
87 246.75 L
S
GR
GS
[0.75 0 0 0.75 0 0.5] CT
0.873 GC
1 LJ
0.667 LW
N
612 182.5 M
87 182.5 L
S
GR
GS
[0.75 0 0 0.75 0 0.5] CT
0.873 GC
1 LJ
0.667 LW
N
612 118.25 M
87 118.25 L
S
GR
GS
[0.75 0 0 0.75 0 0.5] CT
0.873 GC
1 LJ
0.667 LW
N
612 54 M
87 54 L
S
GR
GS
[0.75 0 0 0.75 0 0.5] CT
0.149 GC
2 setlinecap
1 LJ
0.667 LW
N
87 311 M
612 311 L
S
GR
GS
[0.75 0 0 0.75 0 0.5] CT
0.149 GC
2 setlinecap
1 LJ
0.667 LW
N
87 54 M
612 54 L
S
GR
GS
[0.75 0 0 0.75 0 0.5] CT
0.149 GC
2 setlinecap
1 LJ
0.667 LW
N
87 311 M
87 305.75 L
S
GR
GS
[0.75 0 0 0.75 0 0.5] CT
0.149 GC
2 setlinecap
1 LJ
0.667 LW
N
218.25 311 M
218.25 305.75 L
S
GR
GS
[0.75 0 0 0.75 0 0.5] CT
0.149 GC
2 setlinecap
1 LJ
0.667 LW
N
349.5 311 M
349.5 305.75 L
S
GR
GS
[0.75 0 0 0.75 0 0.5] CT
0.149 GC
2 setlinecap
1 LJ
0.667 LW
N
480.75 311 M
480.75 305.75 L
S
GR
GS
[0.75 0 0 0.75 0 0.5] CT
0.149 GC
2 setlinecap
1 LJ
0.667 LW
N
612 311 M
612 305.75 L
S
GR
GS
[0.75 0 0 0.75 0 0.5] CT
0.149 GC
2 setlinecap
1 LJ
0.667 LW
N
87 54 M
87 59.25 L
S
GR
GS
[0.75 0 0 0.75 0 0.5] CT
0.149 GC
2 setlinecap
1 LJ
0.667 LW
N
218.25 54 M
218.25 59.25 L
S
GR
GS
[0.75 0 0 0.75 0 0.5] CT
0.149 GC
2 setlinecap
1 LJ
0.667 LW
N
349.5 54 M
349.5 59.25 L
S
GR
GS
[0.75 0 0 0.75 0 0.5] CT
0.149 GC
2 setlinecap
1 LJ
0.667 LW
N
480.75 54 M
480.75 59.25 L
S
GR
GS
[0.75 0 0 0.75 0 0.5] CT
0.149 GC
2 setlinecap
1 LJ
0.667 LW
N
612 54 M
612 59.25 L
S
GR
GS
[0.75 0 0 0.75 65.25 238.55] CT
0.149 GC
/Helvetica 18.667 F
GS
[1 0 0 1 0 0] CT
-13.5 19 moveto 
1 -1 scale
(-30) t 
GR
GR
GS
[0.75 0 0 0.75 163.6875 238.55] CT
0.149 GC
/Helvetica 18.667 F
GS
[1 0 0 1 0 0] CT
-13.5 19 moveto 
1 -1 scale
(-20) t 
GR
GR
GS
[0.75 0 0 0.75 262.125 238.55] CT
0.149 GC
/Helvetica 18.667 F
GS
[1 0 0 1 0 0] CT
-13.5 19 moveto 
1 -1 scale
(-10) t 
GR
GR
GS
[0.75 0 0 0.75 360.5625 238.55] CT
0.149 GC
/Helvetica 18.667 F
GS
[1 0 0 1 0 0] CT
-5.5 19 moveto 
1 -1 scale
(0) t 
GR
GR
GS
[0.75 0 0 0.75 459 238.55] CT
0.149 GC
/Helvetica 18.667 F
GS
[1 0 0 1 0 0] CT
-10.5 19 moveto 
1 -1 scale
(10) t 
GR
GR
GS
[0.75 0 0 0.75 262.12518 257.55] CT
0.149 GC
/Helvetica 20.533 F
GS
[1 0 0 1 0 0] CT
-43 21 moveto 
1 -1 scale
(SNR [dB]) t 
GR
GR
GS
[0.75 0 0 0.75 0 0.5] CT
0.149 GC
2 setlinecap
1 LJ
0.667 LW
N
87 311 M
87 54 L
S
GR
GS
[0.75 0 0 0.75 0 0.5] CT
0.149 GC
2 setlinecap
1 LJ
0.667 LW
N
612 311 M
612 54 L
S
GR
GS
[0.75 0 0 0.75 0 0.5] CT
0.149 GC
2 setlinecap
1 LJ
0.667 LW
N
87 311 M
92.25 311 L
S
GR
GS
[0.75 0 0 0.75 0 0.5] CT
0.149 GC
2 setlinecap
1 LJ
0.667 LW
N
87 246.75 M
92.25 246.75 L
S
GR
GS
[0.75 0 0 0.75 0 0.5] CT
0.149 GC
2 setlinecap
1 LJ
0.667 LW
N
87 182.5 M
92.25 182.5 L
S
GR
GS
[0.75 0 0 0.75 0 0.5] CT
0.149 GC
2 setlinecap
1 LJ
0.667 LW
N
87 118.25 M
92.25 118.25 L
S
GR
GS
[0.75 0 0 0.75 0 0.5] CT
0.149 GC
2 setlinecap
1 LJ
0.667 LW
N
87 54 M
92.25 54 L
S
GR
GS
[0.75 0 0 0.75 0 0.5] CT
0.149 GC
2 setlinecap
1 LJ
0.667 LW
N
612 311 M
606.75 311 L
S
GR
GS
[0.75 0 0 0.75 0 0.5] CT
0.149 GC
2 setlinecap
1 LJ
0.667 LW
N
612 246.75 M
606.75 246.75 L
S
GR
GS
[0.75 0 0 0.75 0 0.5] CT
0.149 GC
2 setlinecap
1 LJ
0.667 LW
N
612 182.5 M
606.75 182.5 L
S
GR
GS
[0.75 0 0 0.75 0 0.5] CT
0.149 GC
2 setlinecap
1 LJ
0.667 LW
N
612 118.25 M
606.75 118.25 L
S
GR
GS
[0.75 0 0 0.75 0 0.5] CT
0.149 GC
2 setlinecap
1 LJ
0.667 LW
N
612 54 M
606.75 54 L
S
GR
GS
[0.75 0 0 0.75 60.45 233.75] CT
0.149 GC
/Helvetica 18.667 F
GS
[1 0 0 1 0 0] CT
-11 7 moveto 
1 -1 scale
(0) t 
GR
GR
GS
[0.75 0 0 0.75 60.45 185.5625] CT
0.149 GC
/Helvetica 18.667 F
GS
[1 0 0 1 0 0] CT
-11 7 moveto 
1 -1 scale
(2) t 
GR
GR
GS
[0.75 0 0 0.75 60.45 137.375] CT
0.149 GC
/Helvetica 18.667 F
GS
[1 0 0 1 0 0] CT
-11 7 moveto 
1 -1 scale
(4) t 
GR
GR
GS
[0.75 0 0 0.75 60.45 89.1875] CT
0.149 GC
/Helvetica 18.667 F
GS
[1 0 0 1 0 0] CT
-11 7 moveto 
1 -1 scale
(6) t 
GR
GR
GS
[0.75 0 0 0.75 60.45 41] CT
0.149 GC
/Helvetica 18.667 F
GS
[1 0 0 1 0 0] CT
-11 7 moveto 
1 -1 scale
(8) t 
GR
GR
GS
[0 -0.75 0.75 0 49.2 137.37491] CT
0.149 GC
/Helvetica 20.533 F
GS
[1 0 0 1 0 0] CT
-125 -5 moveto 
1 -1 scale
(Spectral Efficiency [bps/Hz]) t 
GR
GR
GS
[0.75 0 0 0.75 0 0.5] CT
0 0.447 0.741 RC
1 LJ
2.667 LW
N
87 310.903 M
174.5 310.141 L
262 298.98 L
349.5 269.24 L
437 215.666 L
524.5 149.172 L
612 79.172 L
S
GR
GS
[0.75 0 0 0.75 65.25 233.67722] CT
0 0.447 0.741 RC
10.0 ML
2.667 LW
N
4 0 M
4 -2.209 2.209 -4 0 -4 C
-2.209 -4 -4 -2.209 -4 0 C
-4 2.209 -2.209 4 0 4 C
2.209 4 4 2.209 4 0 C
cp
S
GR
GS
[0.75 0 0 0.75 130.87499 233.10595] CT
0 0.447 0.741 RC
10.0 ML
2.667 LW
N
4 0 M
4 -2.209 2.209 -4 0 -4 C
-2.209 -4 -4 -2.209 -4 0 C
-4 2.209 -2.209 4 0 4 C
2.209 4 4 2.209 4 0 C
cp
S
GR
GS
[0.75 0 0 0.75 196.5 224.73485] CT
0 0.447 0.741 RC
10.0 ML
2.667 LW
N
4 0 M
4 -2.209 2.209 -4 0 -4 C
-2.209 -4 -4 -2.209 -4 0 C
-4 2.209 -2.209 4 0 4 C
2.209 4 4 2.209 4 0 C
cp
S
GR
GS
[0.75 0 0 0.75 262.125 202.42976] CT
0 0.447 0.741 RC
10.0 ML
2.667 LW
N
4 0 M
4 -2.209 2.209 -4 0 -4 C
-2.209 -4 -4 -2.209 -4 0 C
-4 2.209 -2.209 4 0 4 C
2.209 4 4 2.209 4 0 C
cp
S
GR
GS
[0.75 0 0 0.75 327.75 162.2495] CT
0 0.447 0.741 RC
10.0 ML
2.667 LW
N
4 0 M
4 -2.209 2.209 -4 0 -4 C
-2.209 -4 -4 -2.209 -4 0 C
-4 2.209 -2.209 4 0 4 C
2.209 4 4 2.209 4 0 C
cp
S
GR
GS
[0.75 0 0 0.75 393.375 112.37899] CT
0 0.447 0.741 RC
10.0 ML
2.667 LW
N
4 0 M
4 -2.209 2.209 -4 0 -4 C
-2.209 -4 -4 -2.209 -4 0 C
-4 2.209 -2.209 4 0 4 C
2.209 4 4 2.209 4 0 C
cp
S
GR
GS
[0.75 0 0 0.75 459 59.87926] CT
0 0.447 0.741 RC
10.0 ML
2.667 LW
N
4 0 M
4 -2.209 2.209 -4 0 -4 C
-2.209 -4 -4 -2.209 -4 0 C
-4 2.209 -2.209 4 0 4 C
2.209 4 4 2.209 4 0 C
cp
S
GR
GS
[0.75 0 0 0.75 0 0.5] CT
0.851 0.325 0.098 RC
[8 8] 0 setdash
2 LJ
2.667 LW
N
87 310.724 M
174.5 307.983 L
262 298.133 L
349.5 268.808 L
437 215.329 L
524.5 149.082 L
612 79.076 L
S
GR
GS
[0.75 0 0 0.75 65.25 233.54307] CT
0.851 0.325 0.098 RC
10.0 ML
2.667 LW
N
-2.828 -2.828 M
2.828 2.828 L
-2.828 2.828 M
2.828 -2.828 L
S
GR
GS
[0.75 0 0 0.75 130.87499 231.48737] CT
0.851 0.325 0.098 RC
10.0 ML
2.667 LW
N
-2.828 -2.828 M
2.828 2.828 L
-2.828 2.828 M
2.828 -2.828 L
S
GR
GS
[0.75 0 0 0.75 196.5 224.09949] CT
0.851 0.325 0.098 RC
10.0 ML
2.667 LW
N
-2.828 -2.828 M
2.828 2.828 L
-2.828 2.828 M
2.828 -2.828 L
S
GR
GS
[0.75 0 0 0.75 262.125 202.10608] CT
0.851 0.325 0.098 RC
10.0 ML
2.667 LW
N
-2.828 -2.828 M
2.828 2.828 L
-2.828 2.828 M
2.828 -2.828 L
S
GR
GS
[0.75 0 0 0.75 327.75 161.99693] CT
0.851 0.325 0.098 RC
10.0 ML
2.667 LW
N
-2.828 -2.828 M
2.828 2.828 L
-2.828 2.828 M
2.828 -2.828 L
S
GR
GS
[0.75 0 0 0.75 393.375 112.31116] CT
0.851 0.325 0.098 RC
10.0 ML
2.667 LW
N
-2.828 -2.828 M
2.828 2.828 L
-2.828 2.828 M
2.828 -2.828 L
S
GR
GS
[0.75 0 0 0.75 459 59.80716] CT
0.851 0.325 0.098 RC
10.0 ML
2.667 LW
N
-2.828 -2.828 M
2.828 2.828 L
-2.828 2.828 M
2.828 -2.828 L
S
GR
GS
[0.75 0 0 0.75 0 0.5] CT
0.929 0.694 0.125 RC
[8 8] 0 setdash
2 LJ
2.667 LW
N
87 310.789 M
174.5 308.366 L
262 299.881 L
349.5 273.494 L
437 222.739 L
524.5 157.593 L
612 87.869 L
S
GR
GS
[0.75 0 0 0.75 65.25 233.59166] CT
0.929 0.694 0.125 RC
10.0 ML
2.667 LW
N
-2.828 -2.828 M
2.828 2.828 L
-2.828 2.828 M
2.828 -2.828 L
S
GR
GS
[0.75 0 0 0.75 130.87499 231.77427] CT
0.929 0.694 0.125 RC
10.0 ML
2.667 LW
N
-2.828 -2.828 M
2.828 2.828 L
-2.828 2.828 M
2.828 -2.828 L
S
GR
GS
[0.75 0 0 0.75 196.5 225.41101] CT
0.929 0.694 0.125 RC
10.0 ML
2.667 LW
N
-2.828 -2.828 M
2.828 2.828 L
-2.828 2.828 M
2.828 -2.828 L
S
GR
GS
[0.75 0 0 0.75 262.125 205.62045] CT
0.929 0.694 0.125 RC
10.0 ML
2.667 LW
N
-2.828 -2.828 M
2.828 2.828 L
-2.828 2.828 M
2.828 -2.828 L
S
GR
GS
[0.75 0 0 0.75 327.75 167.55399] CT
0.929 0.694 0.125 RC
10.0 ML
2.667 LW
N
-2.828 -2.828 M
2.828 2.828 L
-2.828 2.828 M
2.828 -2.828 L
S
GR
GS
[0.75 0 0 0.75 393.375 118.69464] CT
0.929 0.694 0.125 RC
10.0 ML
2.667 LW
N
-2.828 -2.828 M
2.828 2.828 L
-2.828 2.828 M
2.828 -2.828 L
S
GR
GS
[0.75 0 0 0.75 459 66.40189] CT
0.929 0.694 0.125 RC
10.0 ML
2.667 LW
N
-2.828 -2.828 M
2.828 2.828 L
-2.828 2.828 M
2.828 -2.828 L
S
GR
GS
[0.75 0 0 0.75 0 0.5] CT
0.494 0.184 0.557 RC
[8 8] 0 setdash
2 LJ
2.667 LW
N
87 310.834 M
174.5 309.445 L
262 304.203 L
349.5 287.533 L
437 252.773 L
524.5 202.648 L
612 142.084 L
S
GR
GS
[0.75 0 0 0.75 65.25 233.62553] CT
0.494 0.184 0.557 RC
10.0 ML
2.667 LW
N
-2.828 -2.828 M
2.828 2.828 L
-2.828 2.828 M
2.828 -2.828 L
S
GR
GS
[0.75 0 0 0.75 130.87499 232.58394] CT
0.494 0.184 0.557 RC
10.0 ML
2.667 LW
N
-2.828 -2.828 M
2.828 2.828 L
-2.828 2.828 M
2.828 -2.828 L
S
GR
GS
[0.75 0 0 0.75 196.5 228.65253] CT
0.494 0.184 0.557 RC
10.0 ML
2.667 LW
N
-2.828 -2.828 M
2.828 2.828 L
-2.828 2.828 M
2.828 -2.828 L
S
GR
GS
[0.75 0 0 0.75 262.125 216.14977] CT
0.494 0.184 0.557 RC
10.0 ML
2.667 LW
N
-2.828 -2.828 M
2.828 2.828 L
-2.828 2.828 M
2.828 -2.828 L
S
GR
GS
[0.75 0 0 0.75 327.75 190.07983] CT
0.494 0.184 0.557 RC
10.0 ML
2.667 LW
N
-2.828 -2.828 M
2.828 2.828 L
-2.828 2.828 M
2.828 -2.828 L
S
GR
GS
[0.75 0 0 0.75 393.375 152.48633] CT
0.494 0.184 0.557 RC
10.0 ML
2.667 LW
N
-2.828 -2.828 M
2.828 2.828 L
-2.828 2.828 M
2.828 -2.828 L
S
GR
GS
[0.75 0 0 0.75 459 107.06266] CT
0.494 0.184 0.557 RC
10.0 ML
2.667 LW
N
-2.828 -2.828 M
2.828 2.828 L
-2.828 2.828 M
2.828 -2.828 L
S
GR
GS
[0.75 0 0 0.75 0 0.5] CT
0.467 0.675 0.188 RC
[8 8] 0 setdash
2 LJ
2.667 LW
N
87 310.843 M
174.5 309.936 L
262 306.372 L
349.5 294.876 L
437 270.186 L
524.5 231.617 L
612 179.581 L
S
GR
GS
[0.75 0 0 0.75 65.25 233.63192] CT
0.467 0.675 0.188 RC
10.0 ML
2.667 LW
N
-2.828 -2.828 M
2.828 2.828 L
-2.828 2.828 M
2.828 -2.828 L
S
GR
GS
[0.75 0 0 0.75 130.87499 232.95182] CT
0.467 0.675 0.188 RC
10.0 ML
2.667 LW
N
-2.828 -2.828 M
2.828 2.828 L
-2.828 2.828 M
2.828 -2.828 L
S
GR
GS
[0.75 0 0 0.75 196.5 230.27901] CT
0.467 0.675 0.188 RC
10.0 ML
2.667 LW
N
-2.828 -2.828 M
2.828 2.828 L
-2.828 2.828 M
2.828 -2.828 L
S
GR
GS
[0.75 0 0 0.75 262.125 221.65735] CT
0.467 0.675 0.188 RC
10.0 ML
2.667 LW
N
-2.828 -2.828 M
2.828 2.828 L
-2.828 2.828 M
2.828 -2.828 L
S
GR
GS
[0.75 0 0 0.75 327.75 203.13921] CT
0.467 0.675 0.188 RC
10.0 ML
2.667 LW
N
-2.828 -2.828 M
2.828 2.828 L
-2.828 2.828 M
2.828 -2.828 L
S
GR
GS
[0.75 0 0 0.75 393.375 174.21287] CT
0.467 0.675 0.188 RC
10.0 ML
2.667 LW
N
-2.828 -2.828 M
2.828 2.828 L
-2.828 2.828 M
2.828 -2.828 L
S
GR
GS
[0.75 0 0 0.75 459 135.18573] CT
0.467 0.675 0.188 RC
10.0 ML
2.667 LW
N
-2.828 -2.828 M
2.828 2.828 L
-2.828 2.828 M
2.828 -2.828 L
S
GR
GS
[0.75 0 0 0.75 0 0.5] CT
1 GC
N
297 188 M
297 62 L
103 62 L
103 188 L
cp
f
GR
GS
[0.75 0 0 0.75 112.5 57.5] CT
/Helvetica 18.667 F
GS
[1 0 0 1 0 0] CT
0 7 moveto 
1 -1 scale
(TTD, 1 symbol) t 
GR
GR
GS
[0.75 0 0 0.75 0 0.5] CT
0 0.447 0.741 RC
1 LJ
2.667 LW
N
107 76 M
147 76 L
S
GR
GS
[0.75 0 0 0.75 95.25 57.5] CT
0 0.447 0.741 RC
10.0 ML
2.667 LW
N
4 0 M
4 -2.209 2.209 -4 0 -4 C
-2.209 -4 -4 -2.209 -4 0 C
-4 2.209 -2.209 4 0 4 C
2.209 4 4 2.209 4 0 C
cp
S
GR
GS
[0.75 0 0 0.75 112.5 75.875] CT
/Helvetica 18.667 F
GS
[1 0 0 1 0 0] CT
0 7 moveto 
1 -1 scale
(PAA, 32 symbols) t 
GR
GR
GS
[0.75 0 0 0.75 0 0.5] CT
0.851 0.325 0.098 RC
[8 8] 0 setdash
2 LJ
2.667 LW
N
107 100.5 M
147 100.5 L
S
GR
GS
[0.75 0 0 0.75 95.25 75.875] CT
0.851 0.325 0.098 RC
10.0 ML
2.667 LW
N
-2.828 -2.828 M
2.828 2.828 L
-2.828 2.828 M
2.828 -2.828 L
S
GR
GS
[0.75 0 0 0.75 112.5 94.25] CT
/Helvetica 18.667 F
GS
[1 0 0 1 0 0] CT
0 7 moveto 
1 -1 scale
(PAA, 16 symbols) t 
GR
GR
GS
[0.75 0 0 0.75 0 0.5] CT
0.929 0.694 0.125 RC
[8 8] 0 setdash
2 LJ
2.667 LW
N
107 125 M
147 125 L
S
GR
GS
[0.75 0 0 0.75 95.25 94.25] CT
0.929 0.694 0.125 RC
10.0 ML
2.667 LW
N
-2.828 -2.828 M
2.828 2.828 L
-2.828 2.828 M
2.828 -2.828 L
S
GR
GS
[0.75 0 0 0.75 112.5 112.625] CT
/Helvetica 18.667 F
GS
[1 0 0 1 0 0] CT
0 7 moveto 
1 -1 scale
(PAA, 8 symbols) t 
GR
GR
GS
[0.75 0 0 0.75 0 0.5] CT
0.494 0.184 0.557 RC
[8 8] 0 setdash
2 LJ
2.667 LW
N
107 149.5 M
147 149.5 L
S
GR
GS
[0.75 0 0 0.75 95.25 112.625] CT
0.494 0.184 0.557 RC
10.0 ML
2.667 LW
N
-2.828 -2.828 M
2.828 2.828 L
-2.828 2.828 M
2.828 -2.828 L
S
GR
GS
[0.75 0 0 0.75 112.5 131] CT
/Helvetica 18.667 F
GS
[1 0 0 1 0 0] CT
0 7 moveto 
1 -1 scale
(PAA, 4 symbols) t 
GR
GR
GS
[0.75 0 0 0.75 0 0.5] CT
0.467 0.675 0.188 RC
[8 8] 0 setdash
2 LJ
2.667 LW
N
107 174 M
147 174 L
S
GR
GS
[0.75 0 0 0.75 95.25 131] CT
0.467 0.675 0.188 RC
10.0 ML
2.667 LW
N
-2.828 -2.828 M
2.828 2.828 L
-2.828 2.828 M
2.828 -2.828 L
S
GR
GS
[0.75 0 0 0.75 0 0.5] CT
0.149 GC
10.0 ML
0.667 LW
N
103 188 M
103 62 L
297 62 L
297 188 L
cp
S
GR
GS
[0.75 0 0 0.75 0 0.5] CT
1 GC
N
87 642 M
612 642 L
612 389 L
87 389 L
cp
f
GR
GS
[0.75 0 0 0.75 0 0.5] CT
0.873 GC
1 LJ
0.667 LW
N
87 642 M
87 389 L
S
GR
GS
[0.75 0 0 0.75 0 0.5] CT
0.873 GC
1 LJ
0.667 LW
N
218.25 642 M
218.25 389 L
S
GR
GS
[0.75 0 0 0.75 0 0.5] CT
0.873 GC
1 LJ
0.667 LW
N
349.5 642 M
349.5 389 L
S
GR
GS
[0.75 0 0 0.75 0 0.5] CT
0.873 GC
1 LJ
0.667 LW
N
480.75 642 M
480.75 389 L
S
GR
GS
[0.75 0 0 0.75 0 0.5] CT
0.873 GC
1 LJ
0.667 LW
N
612 642 M
612 389 L
S
GR
GS
[0.75 0 0 0.75 0 0.5] CT
0.873 GC
1 LJ
0.667 LW
N
612 642 M
87 642 L
S
GR
GS
[0.75 0 0 0.75 0 0.5] CT
0.873 GC
1 LJ
0.667 LW
N
612 578.75 M
87 578.75 L
S
GR
GS
[0.75 0 0 0.75 0 0.5] CT
0.873 GC
1 LJ
0.667 LW
N
612 515.5 M
87 515.5 L
S
GR
GS
[0.75 0 0 0.75 0 0.5] CT
0.873 GC
1 LJ
0.667 LW
N
612 452.25 M
87 452.25 L
S
GR
GS
[0.75 0 0 0.75 0 0.5] CT
0.873 GC
1 LJ
0.667 LW
N
612 389 M
87 389 L
S
GR
GS
[0.75 0 0 0.75 0 0.5] CT
0.149 GC
2 setlinecap
1 LJ
0.667 LW
N
87 642 M
612 642 L
S
GR
GS
[0.75 0 0 0.75 0 0.5] CT
0.149 GC
2 setlinecap
1 LJ
0.667 LW
N
87 389 M
612 389 L
S
GR
GS
[0.75 0 0 0.75 0 0.5] CT
0.149 GC
2 setlinecap
1 LJ
0.667 LW
N
87 642 M
87 636.75 L
S
GR
GS
[0.75 0 0 0.75 0 0.5] CT
0.149 GC
2 setlinecap
1 LJ
0.667 LW
N
218.25 642 M
218.25 636.75 L
S
GR
GS
[0.75 0 0 0.75 0 0.5] CT
0.149 GC
2 setlinecap
1 LJ
0.667 LW
N
349.5 642 M
349.5 636.75 L
S
GR
GS
[0.75 0 0 0.75 0 0.5] CT
0.149 GC
2 setlinecap
1 LJ
0.667 LW
N
480.75 642 M
480.75 636.75 L
S
GR
GS
[0.75 0 0 0.75 0 0.5] CT
0.149 GC
2 setlinecap
1 LJ
0.667 LW
N
612 642 M
612 636.75 L
S
GR
GS
[0.75 0 0 0.75 0 0.5] CT
0.149 GC
2 setlinecap
1 LJ
0.667 LW
N
87 389 M
87 394.25 L
S
GR
GS
[0.75 0 0 0.75 0 0.5] CT
0.149 GC
2 setlinecap
1 LJ
0.667 LW
N
218.25 389 M
218.25 394.25 L
S
GR
GS
[0.75 0 0 0.75 0 0.5] CT
0.149 GC
2 setlinecap
1 LJ
0.667 LW
N
349.5 389 M
349.5 394.25 L
S
GR
GS
[0.75 0 0 0.75 0 0.5] CT
0.149 GC
2 setlinecap
1 LJ
0.667 LW
N
480.75 389 M
480.75 394.25 L
S
GR
GS
[0.75 0 0 0.75 0 0.5] CT
0.149 GC
2 setlinecap
1 LJ
0.667 LW
N
612 389 M
612 394.25 L
S
GR
GS
[0.75 0 0 0.75 65.25 486.80002] CT
0.149 GC
/Helvetica 18.667 F
GS
[1 0 0 1 0 0] CT
-13.5 19 moveto 
1 -1 scale
(-30) t 
GR
GR
GS
[0.75 0 0 0.75 163.6875 486.80002] CT
0.149 GC
/Helvetica 18.667 F
GS
[1 0 0 1 0 0] CT
-13.5 19 moveto 
1 -1 scale
(-20) t 
GR
GR
GS
[0.75 0 0 0.75 262.125 486.80002] CT
0.149 GC
/Helvetica 18.667 F
GS
[1 0 0 1 0 0] CT
-13.5 19 moveto 
1 -1 scale
(-10) t 
GR
GR
GS
[0.75 0 0 0.75 360.5625 486.80002] CT
0.149 GC
/Helvetica 18.667 F
GS
[1 0 0 1 0 0] CT
-5.5 19 moveto 
1 -1 scale
(0) t 
GR
GR
GS
[0.75 0 0 0.75 459 486.80002] CT
0.149 GC
/Helvetica 18.667 F
GS
[1 0 0 1 0 0] CT
-10.5 19 moveto 
1 -1 scale
(10) t 
GR
GR
GS
[0.75 0 0 0.75 262.12518 505.8] CT
0.149 GC
/Helvetica 20.533 F
GS
[1 0 0 1 0 0] CT
-43 21 moveto 
1 -1 scale
(SNR [dB]) t 
GR
GR
GS
[0.75 0 0 0.75 0 0.5] CT
0.149 GC
2 setlinecap
1 LJ
0.667 LW
N
87 642 M
87 389 L
S
GR
GS
[0.75 0 0 0.75 0 0.5] CT
0.149 GC
2 setlinecap
1 LJ
0.667 LW
N
612 642 M
612 389 L
S
GR
GS
[0.75 0 0 0.75 0 0.5] CT
0.149 GC
2 setlinecap
1 LJ
0.667 LW
N
87 642 M
92.25 642 L
S
GR
GS
[0.75 0 0 0.75 0 0.5] CT
0.149 GC
2 setlinecap
1 LJ
0.667 LW
N
87 578.75 M
92.25 578.75 L
S
GR
GS
[0.75 0 0 0.75 0 0.5] CT
0.149 GC
2 setlinecap
1 LJ
0.667 LW
N
87 515.5 M
92.25 515.5 L
S
GR
GS
[0.75 0 0 0.75 0 0.5] CT
0.149 GC
2 setlinecap
1 LJ
0.667 LW
N
87 452.25 M
92.25 452.25 L
S
GR
GS
[0.75 0 0 0.75 0 0.5] CT
0.149 GC
2 setlinecap
1 LJ
0.667 LW
N
87 389 M
92.25 389 L
S
GR
GS
[0.75 0 0 0.75 0 0.5] CT
0.149 GC
2 setlinecap
1 LJ
0.667 LW
N
612 642 M
606.75 642 L
S
GR
GS
[0.75 0 0 0.75 0 0.5] CT
0.149 GC
2 setlinecap
1 LJ
0.667 LW
N
612 578.75 M
606.75 578.75 L
S
GR
GS
[0.75 0 0 0.75 0 0.5] CT
0.149 GC
2 setlinecap
1 LJ
0.667 LW
N
612 515.5 M
606.75 515.5 L
S
GR
GS
[0.75 0 0 0.75 0 0.5] CT
0.149 GC
2 setlinecap
1 LJ
0.667 LW
N
612 452.25 M
606.75 452.25 L
S
GR
GS
[0.75 0 0 0.75 0 0.5] CT
0.149 GC
2 setlinecap
1 LJ
0.667 LW
N
612 389 M
606.75 389 L
S
GR
GS
[0.75 0 0 0.75 60.45 482] CT
0.149 GC
/Helvetica 18.667 F
GS
[1 0 0 1 0 0] CT
-11 7 moveto 
1 -1 scale
(0) t 
GR
GR
GS
[0.75 0 0 0.75 60.45 434.5625] CT
0.149 GC
/Helvetica 18.667 F
GS
[1 0 0 1 0 0] CT
-11 7 moveto 
1 -1 scale
(2) t 
GR
GR
GS
[0.75 0 0 0.75 60.45 387.125] CT
0.149 GC
/Helvetica 18.667 F
GS
[1 0 0 1 0 0] CT
-11 7 moveto 
1 -1 scale
(4) t 
GR
GR
GS
[0.75 0 0 0.75 60.45 339.6875] CT
0.149 GC
/Helvetica 18.667 F
GS
[1 0 0 1 0 0] CT
-11 7 moveto 
1 -1 scale
(6) t 
GR
GR
GS
[0.75 0 0 0.75 60.45 292.25] CT
0.149 GC
/Helvetica 18.667 F
GS
[1 0 0 1 0 0] CT
-11 7 moveto 
1 -1 scale
(8) t 
GR
GR
GS
[0 -0.75 0.75 0 49.2 387.12491] CT
0.149 GC
/Helvetica 20.533 F
GS
[1 0 0 1 0 0] CT
-125 -5 moveto 
1 -1 scale
(Spectral Efficiency [bps/Hz]) t 
GR
GR
GS
[0.75 0 0 0.75 0 0.5] CT
0 0.447 0.741 RC
1 LJ
2.667 LW
N
87 641.903 M
174.5 641.125 L
262 632.797 L
349.5 608.825 L
437 565.032 L
524.5 506.082 L
612 439.606 L
S
GR
GS
[0.75 0 0 0.75 65.25 481.92708] CT
0 0.447 0.741 RC
10.0 ML
2.667 LW
N
4 0 M
4 -2.209 2.209 -4 0 -4 C
-2.209 -4 -4 -2.209 -4 0 C
-4 2.209 -2.209 4 0 4 C
2.209 4 4 2.209 4 0 C
cp
S
GR
GS
[0.75 0 0 0.75 130.87499 481.34366] CT
0 0.447 0.741 RC
10.0 ML
2.667 LW
N
4 0 M
4 -2.209 2.209 -4 0 -4 C
-2.209 -4 -4 -2.209 -4 0 C
-4 2.209 -2.209 4 0 4 C
2.209 4 4 2.209 4 0 C
cp
S
GR
GS
[0.75 0 0 0.75 196.5 475.09743] CT
0 0.447 0.741 RC
10.0 ML
2.667 LW
N
4 0 M
4 -2.209 2.209 -4 0 -4 C
-2.209 -4 -4 -2.209 -4 0 C
-4 2.209 -2.209 4 0 4 C
2.209 4 4 2.209 4 0 C
cp
S
GR
GS
[0.75 0 0 0.75 262.125 457.11876] CT
0 0.447 0.741 RC
10.0 ML
2.667 LW
N
4 0 M
4 -2.209 2.209 -4 0 -4 C
-2.209 -4 -4 -2.209 -4 0 C
-4 2.209 -2.209 4 0 4 C
2.209 4 4 2.209 4 0 C
cp
S
GR
GS
[0.75 0 0 0.75 327.75 424.27376] CT
0 0.447 0.741 RC
10.0 ML
2.667 LW
N
4 0 M
4 -2.209 2.209 -4 0 -4 C
-2.209 -4 -4 -2.209 -4 0 C
-4 2.209 -2.209 4 0 4 C
2.209 4 4 2.209 4 0 C
cp
S
GR
GS
[0.75 0 0 0.75 393.375 380.06184] CT
0 0.447 0.741 RC
10.0 ML
2.667 LW
N
4 0 M
4 -2.209 2.209 -4 0 -4 C
-2.209 -4 -4 -2.209 -4 0 C
-4 2.209 -2.209 4 0 4 C
2.209 4 4 2.209 4 0 C
cp
S
GR
GS
[0.75 0 0 0.75 459 330.20479] CT
0 0.447 0.741 RC
10.0 ML
2.667 LW
N
4 0 M
4 -2.209 2.209 -4 0 -4 C
-2.209 -4 -4 -2.209 -4 0 C
-4 2.209 -2.209 4 0 4 C
2.209 4 4 2.209 4 0 C
cp
S
GR
GS
[0.75 0 0 0.75 0 0.5] CT
0.851 0.325 0.098 RC
[8 8] 0 setdash
2 LJ
2.667 LW
N
87 641.735 M
174.5 639.073 L
262 629.933 L
349.5 604.187 L
437 557.067 L
524.5 495.814 L
612 428.584 L
S
GR
GS
[0.75 0 0 0.75 65.25 481.80092] CT
0.851 0.325 0.098 RC
10.0 ML
2.667 LW
N
-2.828 -2.828 M
2.828 2.828 L
-2.828 2.828 M
2.828 -2.828 L
S
GR
GS
[0.75 0 0 0.75 130.87499 479.80475] CT
0.851 0.325 0.098 RC
10.0 ML
2.667 LW
N
-2.828 -2.828 M
2.828 2.828 L
-2.828 2.828 M
2.828 -2.828 L
S
GR
GS
[0.75 0 0 0.75 196.5 472.9496] CT
0.851 0.325 0.098 RC
10.0 ML
2.667 LW
N
-2.828 -2.828 M
2.828 2.828 L
-2.828 2.828 M
2.828 -2.828 L
S
GR
GS
[0.75 0 0 0.75 262.125 453.64026] CT
0.851 0.325 0.098 RC
10.0 ML
2.667 LW
N
-2.828 -2.828 M
2.828 2.828 L
-2.828 2.828 M
2.828 -2.828 L
S
GR
GS
[0.75 0 0 0.75 327.75 418.3004] CT
0.851 0.325 0.098 RC
10.0 ML
2.667 LW
N
-2.828 -2.828 M
2.828 2.828 L
-2.828 2.828 M
2.828 -2.828 L
S
GR
GS
[0.75 0 0 0.75 393.375 372.36057] CT
0.851 0.325 0.098 RC
10.0 ML
2.667 LW
N
-2.828 -2.828 M
2.828 2.828 L
-2.828 2.828 M
2.828 -2.828 L
S
GR
GS
[0.75 0 0 0.75 459 321.93801] CT
0.851 0.325 0.098 RC
10.0 ML
2.667 LW
N
-2.828 -2.828 M
2.828 2.828 L
-2.828 2.828 M
2.828 -2.828 L
S
GR
GS
[0.75 0 0 0.75 0 0.5] CT
0.929 0.694 0.125 RC
[8 8] 0 setdash
2 LJ
2.667 LW
N
87 641.721 M
174.5 639.465 L
262 631.575 L
349.5 608.386 L
437 563.84 L
524.5 504.005 L
612 437.322 L
S
GR
GS
[0.75 0 0 0.75 65.25 481.79099] CT
0.929 0.694 0.125 RC
10.0 ML
2.667 LW
N
-2.828 -2.828 M
2.828 2.828 L
-2.828 2.828 M
2.828 -2.828 L
S
GR
GS
[0.75 0 0 0.75 130.87499 480.09895] CT
0.929 0.694 0.125 RC
10.0 ML
2.667 LW
N
-2.828 -2.828 M
2.828 2.828 L
-2.828 2.828 M
2.828 -2.828 L
S
GR
GS
[0.75 0 0 0.75 196.5 474.1813] CT
0.929 0.694 0.125 RC
10.0 ML
2.667 LW
N
-2.828 -2.828 M
2.828 2.828 L
-2.828 2.828 M
2.828 -2.828 L
S
GR
GS
[0.75 0 0 0.75 262.125 456.78922] CT
0.929 0.694 0.125 RC
10.0 ML
2.667 LW
N
-2.828 -2.828 M
2.828 2.828 L
-2.828 2.828 M
2.828 -2.828 L
S
GR
GS
[0.75 0 0 0.75 327.75 423.38034] CT
0.929 0.694 0.125 RC
10.0 ML
2.667 LW
N
-2.828 -2.828 M
2.828 2.828 L
-2.828 2.828 M
2.828 -2.828 L
S
GR
GS
[0.75 0 0 0.75 393.375 378.50341] CT
0.929 0.694 0.125 RC
10.0 ML
2.667 LW
N
-2.828 -2.828 M
2.828 2.828 L
-2.828 2.828 M
2.828 -2.828 L
S
GR
GS
[0.75 0 0 0.75 459 328.49156] CT
0.929 0.694 0.125 RC
10.0 ML
2.667 LW
N
-2.828 -2.828 M
2.828 2.828 L
-2.828 2.828 M
2.828 -2.828 L
S
GR
GS
[0.75 0 0 0.75 0 0.5] CT
0.494 0.184 0.557 RC
[8 8] 0 setdash
2 LJ
2.667 LW
N
87 641.807 M
174.5 640.299 L
262 634.532 L
349.5 616.937 L
437 580.355 L
524.5 526.85 L
612 463.536 L
S
GR
GS
[0.75 0 0 0.75 65.25 481.85553] CT
0.494 0.184 0.557 RC
10.0 ML
2.667 LW
N
-2.828 -2.828 M
2.828 2.828 L
-2.828 2.828 M
2.828 -2.828 L
S
GR
GS
[0.75 0 0 0.75 130.87499 480.72426] CT
0.494 0.184 0.557 RC
10.0 ML
2.667 LW
N
-2.828 -2.828 M
2.828 2.828 L
-2.828 2.828 M
2.828 -2.828 L
S
GR
GS
[0.75 0 0 0.75 196.5 476.3988] CT
0.494 0.184 0.557 RC
10.0 ML
2.667 LW
N
-2.828 -2.828 M
2.828 2.828 L
-2.828 2.828 M
2.828 -2.828 L
S
GR
GS
[0.75 0 0 0.75 262.125 463.20285] CT
0.494 0.184 0.557 RC
10.0 ML
2.667 LW
N
-2.828 -2.828 M
2.828 2.828 L
-2.828 2.828 M
2.828 -2.828 L
S
GR
GS
[0.75 0 0 0.75 327.75 435.76619] CT
0.494 0.184 0.557 RC
10.0 ML
2.667 LW
N
-2.828 -2.828 M
2.828 2.828 L
-2.828 2.828 M
2.828 -2.828 L
S
GR
GS
[0.75 0 0 0.75 393.375 395.63753] CT
0.494 0.184 0.557 RC
10.0 ML
2.667 LW
N
-2.828 -2.828 M
2.828 2.828 L
-2.828 2.828 M
2.828 -2.828 L
S
GR
GS
[0.75 0 0 0.75 459 348.15201] CT
0.494 0.184 0.557 RC
10.0 ML
2.667 LW
N
-2.828 -2.828 M
2.828 2.828 L
-2.828 2.828 M
2.828 -2.828 L
S
GR
GS
[0.75 0 0 0.75 0 0.5] CT
0.467 0.675 0.188 RC
[8 8] 0 setdash
2 LJ
2.667 LW
N
87 641.867 M
174.5 641.052 L
262 637.838 L
349.5 627.391 L
437 603.663 L
524.5 563.677 L
612 509.288 L
S
GR
GS
[0.75 0 0 0.75 65.25 481.90034] CT
0.467 0.675 0.188 RC
10.0 ML
2.667 LW
N
-2.828 -2.828 M
2.828 2.828 L
-2.828 2.828 M
2.828 -2.828 L
S
GR
GS
[0.75 0 0 0.75 130.87499 481.28882] CT
0.467 0.675 0.188 RC
10.0 ML
2.667 LW
N
-2.828 -2.828 M
2.828 2.828 L
-2.828 2.828 M
2.828 -2.828 L
S
GR
GS
[0.75 0 0 0.75 196.5 478.87856] CT
0.467 0.675 0.188 RC
10.0 ML
2.667 LW
N
-2.828 -2.828 M
2.828 2.828 L
-2.828 2.828 M
2.828 -2.828 L
S
GR
GS
[0.75 0 0 0.75 262.125 471.04292] CT
0.467 0.675 0.188 RC
10.0 ML
2.667 LW
N
-2.828 -2.828 M
2.828 2.828 L
-2.828 2.828 M
2.828 -2.828 L
S
GR
GS
[0.75 0 0 0.75 327.75 453.24718] CT
0.467 0.675 0.188 RC
10.0 ML
2.667 LW
N
-2.828 -2.828 M
2.828 2.828 L
-2.828 2.828 M
2.828 -2.828 L
S
GR
GS
[0.75 0 0 0.75 393.375 423.25807] CT
0.467 0.675 0.188 RC
10.0 ML
2.667 LW
N
-2.828 -2.828 M
2.828 2.828 L
-2.828 2.828 M
2.828 -2.828 L
S
GR
GS
[0.75 0 0 0.75 459 382.46604] CT
0.467 0.675 0.188 RC
10.0 ML
2.667 LW
N
-2.828 -2.828 M
2.828 2.828 L
-2.828 2.828 M
2.828 -2.828 L
S
GR
GS
[0.75 0 0 0.75 261.97872 55.54838] CT
/Helvetica 18.667 F
GS
[1 0 0 1 0 0] CT
0 19 moveto 
1 -1 scale
(QuaDRiGa UMi LOS) t 
GR
GR
GS
[0.75 0 0 0.75 263.98636 307.66103] CT
/Helvetica 18.667 F
GS
[1 0 0 1 0 0] CT
0 19 moveto 
1 -1 scale
(QuaDRiGa UMi NLOS) t 
GR
GR
%%Trailer
%%Pages: 1
%%EOF
